%!PS-Adobe-2.0 EPSF-2.0
%%Title: ../figures/eval-performance-postgres-ramdisk-capacity.eps
%%Creator: gnuplot 4.4 patchlevel 3
%%CreationDate: Tue Feb  3 00:20:39 2015
%%DocumentFonts: (atend)
%%BoundingBox: 50 50 410 251
%%EndComments
%%BeginProlog
/gnudict 256 dict def
gnudict begin
%
% The following true/false flags may be edited by hand if desired.
% The unit line width and grayscale image gamma correction may also be changed.
%
/Color false def
/Blacktext false def
/Solid false def
/Dashlength 1 def
/Landscape false def
/Level1 false def
/Rounded false def
/ClipToBoundingBox false def
/TransparentPatterns false def
/gnulinewidth 5.000 def
/userlinewidth gnulinewidth def
/Gamma 1.0 def
%
/vshift -73 def
/dl1 {
  10.0 Dashlength mul mul
  Rounded { currentlinewidth 0.75 mul sub dup 0 le { pop 0.01 } if } if
} def
/dl2 {
  10.0 Dashlength mul mul
  Rounded { currentlinewidth 0.75 mul add } if
} def
/hpt_ 31.5 def
/vpt_ 31.5 def
/hpt hpt_ def
/vpt vpt_ def
Level1 {} {
/SDict 10 dict def
systemdict /pdfmark known not {
  userdict /pdfmark systemdict /cleartomark get put
} if
SDict begin [
  /Title (../figures/eval-performance-postgres-ramdisk-capacity.eps)
  /Subject (gnuplot plot)
  /Creator (gnuplot 4.4 patchlevel 3)
  /Author (kimsang)
%  /Producer (gnuplot)
%  /Keywords ()
  /CreationDate (Tue Feb  3 00:20:39 2015)
  /DOCINFO pdfmark
end
} ifelse
/doclip {
  ClipToBoundingBox {
    newpath 50 50 moveto 410 50 lineto 410 251 lineto 50 251 lineto closepath
    clip
  } if
} def
%
% Gnuplot Prolog Version 4.4 (August 2010)
%
%/SuppressPDFMark true def
%
/M {moveto} bind def
/L {lineto} bind def
/R {rmoveto} bind def
/V {rlineto} bind def
/N {newpath moveto} bind def
/Z {closepath} bind def
/C {setrgbcolor} bind def
/f {rlineto fill} bind def
/g {setgray} bind def
/Gshow {show} def   % May be redefined later in the file to support UTF-8
/vpt2 vpt 2 mul def
/hpt2 hpt 2 mul def
/Lshow {currentpoint stroke M 0 vshift R 
	Blacktext {gsave 0 setgray show grestore} {show} ifelse} def
/Rshow {currentpoint stroke M dup stringwidth pop neg vshift R
	Blacktext {gsave 0 setgray show grestore} {show} ifelse} def
/Cshow {currentpoint stroke M dup stringwidth pop -2 div vshift R 
	Blacktext {gsave 0 setgray show grestore} {show} ifelse} def
/UP {dup vpt_ mul /vpt exch def hpt_ mul /hpt exch def
  /hpt2 hpt 2 mul def /vpt2 vpt 2 mul def} def
/DL {Color {setrgbcolor Solid {pop []} if 0 setdash}
 {pop pop pop 0 setgray Solid {pop []} if 0 setdash} ifelse} def
/BL {stroke userlinewidth 2 mul setlinewidth
	Rounded {1 setlinejoin 1 setlinecap} if} def
/AL {stroke userlinewidth 2 div setlinewidth
	Rounded {1 setlinejoin 1 setlinecap} if} def
/UL {dup gnulinewidth mul /userlinewidth exch def
	dup 1 lt {pop 1} if 10 mul /udl exch def} def
/PL {stroke userlinewidth setlinewidth
	Rounded {1 setlinejoin 1 setlinecap} if} def
3.8 setmiterlimit
% Default Line colors
/LCw {1 1 1} def
/LCb {0 0 0} def
/LCa {0 0 0} def
/LC0 {1 0 0} def
/LC1 {0 1 0} def
/LC2 {0 0 1} def
/LC3 {1 0 1} def
/LC4 {0 1 1} def
/LC5 {1 1 0} def
/LC6 {0 0 0} def
/LC7 {1 0.3 0} def
/LC8 {0.5 0.5 0.5} def
% Default Line Types
/LTw {PL [] 1 setgray} def
/LTb {BL [] LCb DL} def
/LTa {AL [1 udl mul 2 udl mul] 0 setdash LCa setrgbcolor} def
/LT0 {PL [] LC0 DL} def
/LT1 {PL [4 dl1 2 dl2] LC1 DL} def
/LT2 {PL [2 dl1 3 dl2] LC2 DL} def
/LT3 {PL [1 dl1 1.5 dl2] LC3 DL} def
/LT4 {PL [6 dl1 2 dl2 1 dl1 2 dl2] LC4 DL} def
/LT5 {PL [3 dl1 3 dl2 1 dl1 3 dl2] LC5 DL} def
/LT6 {PL [2 dl1 2 dl2 2 dl1 6 dl2] LC6 DL} def
/LT7 {PL [1 dl1 2 dl2 6 dl1 2 dl2 1 dl1 2 dl2] LC7 DL} def
/LT8 {PL [2 dl1 2 dl2 2 dl1 2 dl2 2 dl1 2 dl2 2 dl1 4 dl2] LC8 DL} def
/Pnt {stroke [] 0 setdash gsave 1 setlinecap M 0 0 V stroke grestore} def
/Dia {stroke [] 0 setdash 2 copy vpt add M
  hpt neg vpt neg V hpt vpt neg V
  hpt vpt V hpt neg vpt V closepath stroke
  Pnt} def
/Pls {stroke [] 0 setdash vpt sub M 0 vpt2 V
  currentpoint stroke M
  hpt neg vpt neg R hpt2 0 V stroke
 } def
/Box {stroke [] 0 setdash 2 copy exch hpt sub exch vpt add M
  0 vpt2 neg V hpt2 0 V 0 vpt2 V
  hpt2 neg 0 V closepath stroke
  Pnt} def
/Crs {stroke [] 0 setdash exch hpt sub exch vpt add M
  hpt2 vpt2 neg V currentpoint stroke M
  hpt2 neg 0 R hpt2 vpt2 V stroke} def
/TriU {stroke [] 0 setdash 2 copy vpt 1.12 mul add M
  hpt neg vpt -1.62 mul V
  hpt 2 mul 0 V
  hpt neg vpt 1.62 mul V closepath stroke
  Pnt} def
/Star {2 copy Pls Crs} def
/BoxF {stroke [] 0 setdash exch hpt sub exch vpt add M
  0 vpt2 neg V hpt2 0 V 0 vpt2 V
  hpt2 neg 0 V closepath fill} def
/TriUF {stroke [] 0 setdash vpt 1.12 mul add M
  hpt neg vpt -1.62 mul V
  hpt 2 mul 0 V
  hpt neg vpt 1.62 mul V closepath fill} def
/TriD {stroke [] 0 setdash 2 copy vpt 1.12 mul sub M
  hpt neg vpt 1.62 mul V
  hpt 2 mul 0 V
  hpt neg vpt -1.62 mul V closepath stroke
  Pnt} def
/TriDF {stroke [] 0 setdash vpt 1.12 mul sub M
  hpt neg vpt 1.62 mul V
  hpt 2 mul 0 V
  hpt neg vpt -1.62 mul V closepath fill} def
/DiaF {stroke [] 0 setdash vpt add M
  hpt neg vpt neg V hpt vpt neg V
  hpt vpt V hpt neg vpt V closepath fill} def
/Pent {stroke [] 0 setdash 2 copy gsave
  translate 0 hpt M 4 {72 rotate 0 hpt L} repeat
  closepath stroke grestore Pnt} def
/PentF {stroke [] 0 setdash gsave
  translate 0 hpt M 4 {72 rotate 0 hpt L} repeat
  closepath fill grestore} def
/Circle {stroke [] 0 setdash 2 copy
  hpt 0 360 arc stroke Pnt} def
/CircleF {stroke [] 0 setdash hpt 0 360 arc fill} def
/C0 {BL [] 0 setdash 2 copy moveto vpt 90 450 arc} bind def
/C1 {BL [] 0 setdash 2 copy moveto
	2 copy vpt 0 90 arc closepath fill
	vpt 0 360 arc closepath} bind def
/C2 {BL [] 0 setdash 2 copy moveto
	2 copy vpt 90 180 arc closepath fill
	vpt 0 360 arc closepath} bind def
/C3 {BL [] 0 setdash 2 copy moveto
	2 copy vpt 0 180 arc closepath fill
	vpt 0 360 arc closepath} bind def
/C4 {BL [] 0 setdash 2 copy moveto
	2 copy vpt 180 270 arc closepath fill
	vpt 0 360 arc closepath} bind def
/C5 {BL [] 0 setdash 2 copy moveto
	2 copy vpt 0 90 arc
	2 copy moveto
	2 copy vpt 180 270 arc closepath fill
	vpt 0 360 arc} bind def
/C6 {BL [] 0 setdash 2 copy moveto
	2 copy vpt 90 270 arc closepath fill
	vpt 0 360 arc closepath} bind def
/C7 {BL [] 0 setdash 2 copy moveto
	2 copy vpt 0 270 arc closepath fill
	vpt 0 360 arc closepath} bind def
/C8 {BL [] 0 setdash 2 copy moveto
	2 copy vpt 270 360 arc closepath fill
	vpt 0 360 arc closepath} bind def
/C9 {BL [] 0 setdash 2 copy moveto
	2 copy vpt 270 450 arc closepath fill
	vpt 0 360 arc closepath} bind def
/C10 {BL [] 0 setdash 2 copy 2 copy moveto vpt 270 360 arc closepath fill
	2 copy moveto
	2 copy vpt 90 180 arc closepath fill
	vpt 0 360 arc closepath} bind def
/C11 {BL [] 0 setdash 2 copy moveto
	2 copy vpt 0 180 arc closepath fill
	2 copy moveto
	2 copy vpt 270 360 arc closepath fill
	vpt 0 360 arc closepath} bind def
/C12 {BL [] 0 setdash 2 copy moveto
	2 copy vpt 180 360 arc closepath fill
	vpt 0 360 arc closepath} bind def
/C13 {BL [] 0 setdash 2 copy moveto
	2 copy vpt 0 90 arc closepath fill
	2 copy moveto
	2 copy vpt 180 360 arc closepath fill
	vpt 0 360 arc closepath} bind def
/C14 {BL [] 0 setdash 2 copy moveto
	2 copy vpt 90 360 arc closepath fill
	vpt 0 360 arc} bind def
/C15 {BL [] 0 setdash 2 copy vpt 0 360 arc closepath fill
	vpt 0 360 arc closepath} bind def
/Rec {newpath 4 2 roll moveto 1 index 0 rlineto 0 exch rlineto
	neg 0 rlineto closepath} bind def
/Square {dup Rec} bind def
/Bsquare {vpt sub exch vpt sub exch vpt2 Square} bind def
/S0 {BL [] 0 setdash 2 copy moveto 0 vpt rlineto BL Bsquare} bind def
/S1 {BL [] 0 setdash 2 copy vpt Square fill Bsquare} bind def
/S2 {BL [] 0 setdash 2 copy exch vpt sub exch vpt Square fill Bsquare} bind def
/S3 {BL [] 0 setdash 2 copy exch vpt sub exch vpt2 vpt Rec fill Bsquare} bind def
/S4 {BL [] 0 setdash 2 copy exch vpt sub exch vpt sub vpt Square fill Bsquare} bind def
/S5 {BL [] 0 setdash 2 copy 2 copy vpt Square fill
	exch vpt sub exch vpt sub vpt Square fill Bsquare} bind def
/S6 {BL [] 0 setdash 2 copy exch vpt sub exch vpt sub vpt vpt2 Rec fill Bsquare} bind def
/S7 {BL [] 0 setdash 2 copy exch vpt sub exch vpt sub vpt vpt2 Rec fill
	2 copy vpt Square fill Bsquare} bind def
/S8 {BL [] 0 setdash 2 copy vpt sub vpt Square fill Bsquare} bind def
/S9 {BL [] 0 setdash 2 copy vpt sub vpt vpt2 Rec fill Bsquare} bind def
/S10 {BL [] 0 setdash 2 copy vpt sub vpt Square fill 2 copy exch vpt sub exch vpt Square fill
	Bsquare} bind def
/S11 {BL [] 0 setdash 2 copy vpt sub vpt Square fill 2 copy exch vpt sub exch vpt2 vpt Rec fill
	Bsquare} bind def
/S12 {BL [] 0 setdash 2 copy exch vpt sub exch vpt sub vpt2 vpt Rec fill Bsquare} bind def
/S13 {BL [] 0 setdash 2 copy exch vpt sub exch vpt sub vpt2 vpt Rec fill
	2 copy vpt Square fill Bsquare} bind def
/S14 {BL [] 0 setdash 2 copy exch vpt sub exch vpt sub vpt2 vpt Rec fill
	2 copy exch vpt sub exch vpt Square fill Bsquare} bind def
/S15 {BL [] 0 setdash 2 copy Bsquare fill Bsquare} bind def
/D0 {gsave translate 45 rotate 0 0 S0 stroke grestore} bind def
/D1 {gsave translate 45 rotate 0 0 S1 stroke grestore} bind def
/D2 {gsave translate 45 rotate 0 0 S2 stroke grestore} bind def
/D3 {gsave translate 45 rotate 0 0 S3 stroke grestore} bind def
/D4 {gsave translate 45 rotate 0 0 S4 stroke grestore} bind def
/D5 {gsave translate 45 rotate 0 0 S5 stroke grestore} bind def
/D6 {gsave translate 45 rotate 0 0 S6 stroke grestore} bind def
/D7 {gsave translate 45 rotate 0 0 S7 stroke grestore} bind def
/D8 {gsave translate 45 rotate 0 0 S8 stroke grestore} bind def
/D9 {gsave translate 45 rotate 0 0 S9 stroke grestore} bind def
/D10 {gsave translate 45 rotate 0 0 S10 stroke grestore} bind def
/D11 {gsave translate 45 rotate 0 0 S11 stroke grestore} bind def
/D12 {gsave translate 45 rotate 0 0 S12 stroke grestore} bind def
/D13 {gsave translate 45 rotate 0 0 S13 stroke grestore} bind def
/D14 {gsave translate 45 rotate 0 0 S14 stroke grestore} bind def
/D15 {gsave translate 45 rotate 0 0 S15 stroke grestore} bind def
/DiaE {stroke [] 0 setdash vpt add M
  hpt neg vpt neg V hpt vpt neg V
  hpt vpt V hpt neg vpt V closepath stroke} def
/BoxE {stroke [] 0 setdash exch hpt sub exch vpt add M
  0 vpt2 neg V hpt2 0 V 0 vpt2 V
  hpt2 neg 0 V closepath stroke} def
/TriUE {stroke [] 0 setdash vpt 1.12 mul add M
  hpt neg vpt -1.62 mul V
  hpt 2 mul 0 V
  hpt neg vpt 1.62 mul V closepath stroke} def
/TriDE {stroke [] 0 setdash vpt 1.12 mul sub M
  hpt neg vpt 1.62 mul V
  hpt 2 mul 0 V
  hpt neg vpt -1.62 mul V closepath stroke} def
/PentE {stroke [] 0 setdash gsave
  translate 0 hpt M 4 {72 rotate 0 hpt L} repeat
  closepath stroke grestore} def
/CircE {stroke [] 0 setdash 
  hpt 0 360 arc stroke} def
/Opaque {gsave closepath 1 setgray fill grestore 0 setgray closepath} def
/DiaW {stroke [] 0 setdash vpt add M
  hpt neg vpt neg V hpt vpt neg V
  hpt vpt V hpt neg vpt V Opaque stroke} def
/BoxW {stroke [] 0 setdash exch hpt sub exch vpt add M
  0 vpt2 neg V hpt2 0 V 0 vpt2 V
  hpt2 neg 0 V Opaque stroke} def
/TriUW {stroke [] 0 setdash vpt 1.12 mul add M
  hpt neg vpt -1.62 mul V
  hpt 2 mul 0 V
  hpt neg vpt 1.62 mul V Opaque stroke} def
/TriDW {stroke [] 0 setdash vpt 1.12 mul sub M
  hpt neg vpt 1.62 mul V
  hpt 2 mul 0 V
  hpt neg vpt -1.62 mul V Opaque stroke} def
/PentW {stroke [] 0 setdash gsave
  translate 0 hpt M 4 {72 rotate 0 hpt L} repeat
  Opaque stroke grestore} def
/CircW {stroke [] 0 setdash 
  hpt 0 360 arc Opaque stroke} def
/BoxFill {gsave Rec 1 setgray fill grestore} def
/Density {
  /Fillden exch def
  currentrgbcolor
  /ColB exch def /ColG exch def /ColR exch def
  /ColR ColR Fillden mul Fillden sub 1 add def
  /ColG ColG Fillden mul Fillden sub 1 add def
  /ColB ColB Fillden mul Fillden sub 1 add def
  ColR ColG ColB setrgbcolor} def
/BoxColFill {gsave Rec PolyFill} def
/PolyFill {gsave Density fill grestore grestore} def
/h {rlineto rlineto rlineto gsave closepath fill grestore} bind def
%
% PostScript Level 1 Pattern Fill routine for rectangles
% Usage: x y w h s a XX PatternFill
%	x,y = lower left corner of box to be filled
%	w,h = width and height of box
%	  a = angle in degrees between lines and x-axis
%	 XX = 0/1 for no/yes cross-hatch
%
/PatternFill {gsave /PFa [ 9 2 roll ] def
  PFa 0 get PFa 2 get 2 div add PFa 1 get PFa 3 get 2 div add translate
  PFa 2 get -2 div PFa 3 get -2 div PFa 2 get PFa 3 get Rec
  gsave 1 setgray fill grestore clip
  currentlinewidth 0.5 mul setlinewidth
  /PFs PFa 2 get dup mul PFa 3 get dup mul add sqrt def
  0 0 M PFa 5 get rotate PFs -2 div dup translate
  0 1 PFs PFa 4 get div 1 add floor cvi
	{PFa 4 get mul 0 M 0 PFs V} for
  0 PFa 6 get ne {
	0 1 PFs PFa 4 get div 1 add floor cvi
	{PFa 4 get mul 0 2 1 roll M PFs 0 V} for
 } if
  stroke grestore} def
%
/languagelevel where
 {pop languagelevel} {1} ifelse
 2 lt
	{/InterpretLevel1 true def}
	{/InterpretLevel1 Level1 def}
 ifelse
%
% PostScript level 2 pattern fill definitions
%
/Level2PatternFill {
/Tile8x8 {/PaintType 2 /PatternType 1 /TilingType 1 /BBox [0 0 8 8] /XStep 8 /YStep 8}
	bind def
/KeepColor {currentrgbcolor [/Pattern /DeviceRGB] setcolorspace} bind def
<< Tile8x8
 /PaintProc {0.5 setlinewidth pop 0 0 M 8 8 L 0 8 M 8 0 L stroke} 
>> matrix makepattern
/Pat1 exch def
<< Tile8x8
 /PaintProc {0.5 setlinewidth pop 0 0 M 8 8 L 0 8 M 8 0 L stroke
	0 4 M 4 8 L 8 4 L 4 0 L 0 4 L stroke}
>> matrix makepattern
/Pat2 exch def
<< Tile8x8
 /PaintProc {0.5 setlinewidth pop 0 0 M 0 8 L
	8 8 L 8 0 L 0 0 L fill}
>> matrix makepattern
/Pat3 exch def
<< Tile8x8
 /PaintProc {0.5 setlinewidth pop -4 8 M 8 -4 L
	0 12 M 12 0 L stroke}
>> matrix makepattern
/Pat4 exch def
<< Tile8x8
 /PaintProc {0.5 setlinewidth pop -4 0 M 8 12 L
	0 -4 M 12 8 L stroke}
>> matrix makepattern
/Pat5 exch def
<< Tile8x8
 /PaintProc {0.5 setlinewidth pop -2 8 M 4 -4 L
	0 12 M 8 -4 L 4 12 M 10 0 L stroke}
>> matrix makepattern
/Pat6 exch def
<< Tile8x8
 /PaintProc {0.5 setlinewidth pop -2 0 M 4 12 L
	0 -4 M 8 12 L 4 -4 M 10 8 L stroke}
>> matrix makepattern
/Pat7 exch def
<< Tile8x8
 /PaintProc {0.5 setlinewidth pop 8 -2 M -4 4 L
	12 0 M -4 8 L 12 4 M 0 10 L stroke}
>> matrix makepattern
/Pat8 exch def
<< Tile8x8
 /PaintProc {0.5 setlinewidth pop 0 -2 M 12 4 L
	-4 0 M 12 8 L -4 4 M 8 10 L stroke}
>> matrix makepattern
/Pat9 exch def
/Pattern1 {PatternBgnd KeepColor Pat1 setpattern} bind def
/Pattern2 {PatternBgnd KeepColor Pat2 setpattern} bind def
/Pattern3 {PatternBgnd KeepColor Pat3 setpattern} bind def
/Pattern4 {PatternBgnd KeepColor Landscape {Pat5} {Pat4} ifelse setpattern} bind def
/Pattern5 {PatternBgnd KeepColor Landscape {Pat4} {Pat5} ifelse setpattern} bind def
/Pattern6 {PatternBgnd KeepColor Landscape {Pat9} {Pat6} ifelse setpattern} bind def
/Pattern7 {PatternBgnd KeepColor Landscape {Pat8} {Pat7} ifelse setpattern} bind def
} def
%
%
%End of PostScript Level 2 code
%
/PatternBgnd {
  TransparentPatterns {} {gsave 1 setgray fill grestore} ifelse
} def
%
% Substitute for Level 2 pattern fill codes with
% grayscale if Level 2 support is not selected.
%
/Level1PatternFill {
/Pattern1 {0.250 Density} bind def
/Pattern2 {0.500 Density} bind def
/Pattern3 {0.750 Density} bind def
/Pattern4 {0.125 Density} bind def
/Pattern5 {0.375 Density} bind def
/Pattern6 {0.625 Density} bind def
/Pattern7 {0.875 Density} bind def
} def
%
% Now test for support of Level 2 code
%
Level1 {Level1PatternFill} {Level2PatternFill} ifelse
%
/Symbol-Oblique /Symbol findfont [1 0 .167 1 0 0] makefont
dup length dict begin {1 index /FID eq {pop pop} {def} ifelse} forall
currentdict end definefont pop
/MFshow {
   { dup 5 get 3 ge
     { 5 get 3 eq {gsave} {grestore} ifelse }
     {dup dup 0 get findfont exch 1 get scalefont setfont
     [ currentpoint ] exch dup 2 get 0 exch R dup 5 get 2 ne {dup dup 6
     get exch 4 get {Gshow} {stringwidth pop 0 R} ifelse }if dup 5 get 0 eq
     {dup 3 get {2 get neg 0 exch R pop} {pop aload pop M} ifelse} {dup 5
     get 1 eq {dup 2 get exch dup 3 get exch 6 get stringwidth pop -2 div
     dup 0 R} {dup 6 get stringwidth pop -2 div 0 R 6 get
     show 2 index {aload pop M neg 3 -1 roll neg R pop pop} {pop pop pop
     pop aload pop M} ifelse }ifelse }ifelse }
     ifelse }
   forall} def
/Gswidth {dup type /stringtype eq {stringwidth} {pop (n) stringwidth} ifelse} def
/MFwidth {0 exch { dup 5 get 3 ge { 5 get 3 eq { 0 } { pop } ifelse }
 {dup 3 get{dup dup 0 get findfont exch 1 get scalefont setfont
     6 get Gswidth pop add} {pop} ifelse} ifelse} forall} def
/MLshow { currentpoint stroke M
  0 exch R
  Blacktext {gsave 0 setgray MFshow grestore} {MFshow} ifelse } bind def
/MRshow { currentpoint stroke M
  exch dup MFwidth neg 3 -1 roll R
  Blacktext {gsave 0 setgray MFshow grestore} {MFshow} ifelse } bind def
/MCshow { currentpoint stroke M
  exch dup MFwidth -2 div 3 -1 roll R
  Blacktext {gsave 0 setgray MFshow grestore} {MFshow} ifelse } bind def
/XYsave    { [( ) 1 2 true false 3 ()] } bind def
/XYrestore { [( ) 1 2 true false 4 ()] } bind def
end
%%EndProlog
gnudict begin
gsave
doclip
50 50 translate
0.050 0.050 scale
0 setgray
newpath
(Times-Roman) findfont 220 scalefont setfont
1.000 UL
LTb
1.000 UL
LTa
748 704 M
6055 0 V
stroke
LTb
748 704 M
63 0 V
stroke
616 704 M
[ [(Times-Roman) 220.0 0.0 true true 0 ( 0)]
] -73.3 MRshow
1.000 UL
LTb
1.000 UL
LTa
748 995 M
6055 0 V
stroke
LTb
748 995 M
63 0 V
stroke
616 995 M
[ [(Times-Roman) 220.0 0.0 true true 0 ( 5)]
] -73.3 MRshow
1.000 UL
LTb
1.000 UL
LTa
748 1287 M
6055 0 V
stroke
LTb
748 1287 M
63 0 V
stroke
616 1287 M
[ [(Times-Roman) 220.0 0.0 true true 0 ( 10)]
] -73.3 MRshow
1.000 UL
LTb
1.000 UL
LTa
748 1578 M
6055 0 V
stroke
LTb
748 1578 M
63 0 V
stroke
616 1578 M
[ [(Times-Roman) 220.0 0.0 true true 0 ( 15)]
] -73.3 MRshow
1.000 UL
LTb
1.000 UL
LTa
748 1870 M
6055 0 V
stroke
LTb
748 1870 M
63 0 V
stroke
616 1870 M
[ [(Times-Roman) 220.0 0.0 true true 0 ( 20)]
] -73.3 MRshow
1.000 UL
LTb
1.000 UL
LTa
748 2161 M
6055 0 V
stroke
LTb
748 2161 M
63 0 V
stroke
616 2161 M
[ [(Times-Roman) 220.0 0.0 true true 0 ( 25)]
] -73.3 MRshow
1.000 UL
LTb
1.000 UL
LTa
748 2453 M
6055 0 V
stroke
LTb
748 2453 M
63 0 V
stroke
616 2453 M
[ [(Times-Roman) 220.0 0.0 true true 0 ( 30)]
] -73.3 MRshow
1.000 UL
LTb
1.000 UL
LTa
748 2744 M
6055 0 V
stroke
LTb
748 2744 M
63 0 V
stroke
616 2744 M
[ [(Times-Roman) 220.0 0.0 true true 0 ( 35)]
] -73.3 MRshow
1.000 UL
LTb
1.000 UL
LTa
748 3036 M
6055 0 V
stroke
LTb
748 3036 M
63 0 V
stroke
616 3036 M
[ [(Times-Roman) 220.0 0.0 true true 0 ( 40)]
] -73.3 MRshow
1.000 UL
LTb
1.000 UL
LTa
748 3327 M
718 0 V
stroke
LTb
748 3327 M
63 0 V
stroke
616 3327 M
[ [(Times-Roman) 220.0 0.0 true true 0 ( 45)]
] -73.3 MRshow
1.000 UL
LTb
1325 704 M
0 63 V
stroke
1325 484 M
[ [(Times-Roman) 220.0 0.0 true true 0 (32)]
] -73.3 MCshow
1.000 UL
LTb
2286 704 M
0 63 V
stroke
2286 484 M
[ [(Times-Roman) 220.0 0.0 true true 0 (128)]
] -73.3 MCshow
1.000 UL
LTb
3247 704 M
0 63 V
stroke
3247 484 M
[ [(Times-Roman) 220.0 0.0 true true 0 (512)]
] -73.3 MCshow
1.000 UL
LTb
4208 704 M
0 63 V
stroke
4208 484 M
[ [(Times-Roman) 220.0 0.0 true true 0 (1024)]
] -73.3 MCshow
1.000 UL
LTb
5169 704 M
0 63 V
stroke
5169 484 M
[ [(Times-Roman) 220.0 0.0 true true 0 (2048)]
] -73.3 MCshow
1.000 UL
LTb
6130 704 M
0 63 V
stroke
6130 484 M
[ [(Times-Roman) 220.0 0.0 true true 0 (4096)]
] -73.3 MCshow
1.000 UL
LTb
1.000 UL
LTb
748 3327 N
748 704 L
6055 0 V
0 2623 V
-6055 0 V
Z stroke
LCb setrgbcolor
176 2015 M
currentpoint gsave translate -270 rotate 0 0 moveto
[ [(Times-Roman) 220.0 0.0 true true 0 (Avg TPC-C thput \(KtpmC\))]
] -73.3 MCshow
grestore
LTb
LCb setrgbcolor
3775 154 M
[ [(Times-Roman) 220.0 0.0 true true 0 (NVWC capacity \(MB\))]
] -73.3 MCshow
LTb
1.000 UP
1.000 UL
LTb
% Begin plot #1
1.000 UL
LT0
LCb setrgbcolor
2654 3749 M
[ [(Times-Roman) 200.0 0.0 true true 0 (ALL)]
] -66.7 MRshow
LT0
2786 3694 327 110 80 -45 1 PatternFill
LCb setrgbcolor
2786 3694 N
327 0 V
0 110 V
-327 0 V
0 -110 V
Z stroke
LT0
1039 704 91 1254 80 -45 1 PatternFill
LCb setrgbcolor
1039 704 N
0 1253 V
90 0 V
0 -1253 V
-90 0 V
Z stroke
LT0
2000 704 92 1376 80 -45 1 PatternFill
LCb setrgbcolor
2000 704 N
0 1375 V
91 0 V
0 -1375 V
-91 0 V
Z stroke
LT0
2962 704 91 1462 80 -45 1 PatternFill
LCb setrgbcolor
2962 704 N
0 1461 V
90 0 V
0 -1461 V
-90 0 V
Z stroke
LT0
3923 704 91 1530 80 -45 1 PatternFill
LCb setrgbcolor
3923 704 N
0 1529 V
90 0 V
0 -1529 V
-90 0 V
Z stroke
LT0
4884 704 91 1837 80 -45 1 PatternFill
LCb setrgbcolor
4884 704 N
0 1836 V
90 0 V
0 -1836 V
-90 0 V
Z stroke
LT0
5845 704 91 2287 80 -45 1 PatternFill
LCb setrgbcolor
5845 704 N
0 2286 V
90 0 V
0 -2286 V
-90 0 V
Z stroke
LT0
2.000 UL
PL LCb setrgbcolor
1084 1932 M
0 49 V
-31 -49 R
62 0 V
-62 49 R
62 0 V
931 61 R
0 74 V
-31 -74 R
62 0 V
-62 74 R
62 0 V
930 23 R
0 52 V
-31 -52 R
62 0 V
-62 52 R
62 0 V
930 28 R
0 28 V
-31 -28 R
62 0 V
-62 28 R
62 0 V
930 223 R
0 139 V
-31 -139 R
62 0 V
-62 139 R
62 0 V
930 370 R
0 22 V
-31 -22 R
62 0 V
-62 22 R
62 0 V
stroke
1.000 UL
LT0
% End plot #1
% Begin plot #2
1.000 UL
LT0
LCb setrgbcolor
2654 3529 M
[ [(Times-Roman) 200.0 0.0 true true 0 (SYNC)]
] -66.7 MRshow
LT0
0.100 2786 3474 327 110 BoxColFill
LCb setrgbcolor
2786 3474 N
327 0 V
0 110 V
-327 0 V
0 -110 V
Z stroke
LT0
0.100 1159 704 92 1403 BoxColFill
LCb setrgbcolor
1159 704 N
0 1402 V
91 0 V
0 -1402 V
-91 0 V
Z stroke
LT0
0.100 2121 704 91 1570 BoxColFill
LCb setrgbcolor
2121 704 N
0 1569 V
90 0 V
0 -1569 V
-90 0 V
Z stroke
LT0
0.100 3082 704 91 1595 BoxColFill
LCb setrgbcolor
3082 704 N
0 1594 V
90 0 V
0 -1594 V
-90 0 V
Z stroke
LT0
0.100 4043 704 91 1650 BoxColFill
LCb setrgbcolor
4043 704 N
0 1649 V
90 0 V
0 -1649 V
-90 0 V
Z stroke
LT0
0.100 5004 704 91 1679 BoxColFill
LCb setrgbcolor
5004 704 N
0 1678 V
90 0 V
0 -1678 V
-90 0 V
Z stroke
LT0
0.100 5965 704 91 1705 BoxColFill
LCb setrgbcolor
5965 704 N
0 1704 V
90 0 V
0 -1704 V
-90 0 V
Z stroke
LT0
2.000 UL
PL LCb setrgbcolor
1205 2082 M
0 47 V
-31 -47 R
62 0 V
-62 47 R
62 0 V
930 112 R
0 64 V
-31 -64 R
62 0 V
-62 64 R
62 0 V
930 -18 R
0 23 V
-31 -23 R
62 0 V
-62 23 R
62 0 V
930 -15 R
0 116 V
-31 -116 R
62 0 V
-62 116 R
62 0 V
930 -37 R
0 16 V
-31 -16 R
62 0 V
-62 16 R
62 0 V
930 -18 R
0 72 V
-31 -72 R
62 0 V
-62 72 R
62 0 V
stroke
1.000 UL
LT0
% End plot #2
% Begin plot #3
1.000 UL
LT0
LCb setrgbcolor
4433 3749 M
[ [(Times-Roman) 200.0 0.0 true true 0 (WAL)]
] -66.7 MRshow
LT0
4565 3694 327 110 40 45 2 PatternFill
LCb setrgbcolor
4565 3694 N
327 0 V
0 110 V
-327 0 V
0 -110 V
Z stroke
LT0
1280 704 91 1585 40 45 2 PatternFill
LCb setrgbcolor
1280 704 N
0 1584 V
90 0 V
0 -1584 V
-90 0 V
Z stroke
LT0
2241 704 91 1564 40 45 2 PatternFill
LCb setrgbcolor
2241 704 N
0 1563 V
90 0 V
0 -1563 V
-90 0 V
Z stroke
LT0
3202 704 91 1513 40 45 2 PatternFill
LCb setrgbcolor
3202 704 N
0 1512 V
90 0 V
0 -1512 V
-90 0 V
Z stroke
LT0
4163 704 91 1534 40 45 2 PatternFill
LCb setrgbcolor
4163 704 N
0 1533 V
90 0 V
0 -1533 V
-90 0 V
Z stroke
LT0
5124 704 91 1472 40 45 2 PatternFill
LCb setrgbcolor
5124 704 N
0 1471 V
90 0 V
0 -1471 V
-90 0 V
Z stroke
LT0
6085 704 91 1599 40 45 2 PatternFill
LCb setrgbcolor
6085 704 N
0 1598 V
90 0 V
0 -1598 V
-90 0 V
Z stroke
LT0
2.000 UL
PL LCb setrgbcolor
1325 2246 M
0 83 V
-31 -83 R
62 0 V
-62 83 R
62 0 V
930 -145 R
0 166 V
-31 -166 R
62 0 V
-62 166 R
62 0 V
930 -165 R
0 62 V
-31 -62 R
62 0 V
-62 62 R
62 0 V
930 -30 R
0 41 V
-31 -41 R
62 0 V
-62 41 R
62 0 V
930 -143 R
0 120 V
-31 -120 R
62 0 V
-62 120 R
62 0 V
930 -23 R
0 179 V
-31 -179 R
62 0 V
-62 179 R
62 0 V
stroke
1.000 UL
LT0
% End plot #3
% Begin plot #4
1.000 UL
LT0
LCb setrgbcolor
4433 3529 M
[ [(Times-Roman) 200.0 0.0 true true 0 (CP)]
] -66.7 MRshow
LT0
0.400 4565 3474 327 110 BoxColFill
LCb setrgbcolor
4565 3474 N
327 0 V
0 110 V
-327 0 V
0 -110 V
Z stroke
LT0
0.400 1400 704 91 1731 BoxColFill
LCb setrgbcolor
1400 704 N
0 1730 V
90 0 V
0 -1730 V
-90 0 V
Z stroke
LT0
0.400 2361 704 91 1769 BoxColFill
LCb setrgbcolor
2361 704 N
0 1768 V
90 0 V
0 -1768 V
-90 0 V
Z stroke
LT0
0.400 3322 704 91 1768 BoxColFill
LCb setrgbcolor
3322 704 N
0 1767 V
90 0 V
0 -1767 V
-90 0 V
Z stroke
LT0
0.400 4283 704 91 1741 BoxColFill
LCb setrgbcolor
4283 704 N
0 1740 V
90 0 V
0 -1740 V
-90 0 V
Z stroke
LT0
0.400 5244 704 91 1754 BoxColFill
LCb setrgbcolor
5244 704 N
0 1753 V
90 0 V
0 -1753 V
-90 0 V
Z stroke
LT0
0.400 6205 704 91 1774 BoxColFill
LCb setrgbcolor
6205 704 N
0 1773 V
90 0 V
0 -1773 V
-90 0 V
Z stroke
LT0
2.000 UL
PL LCb setrgbcolor
1445 2404 M
0 60 V
-31 -60 R
62 0 V
-62 60 R
62 0 V
930 -66 R
0 148 V
-31 -148 R
62 0 V
-62 148 R
62 0 V
930 -118 R
0 86 V
-31 -86 R
62 0 V
-62 86 R
62 0 V
930 -93 R
0 47 V
-31 -47 R
62 0 V
-62 47 R
62 0 V
930 -34 R
0 46 V
-31 -46 R
62 0 V
-62 46 R
62 0 V
930 -43 R
0 81 V
-31 -81 R
62 0 V
-62 81 R
62 0 V
stroke
1.000 UL
LT0
% End plot #4
% Begin plot #5
1.000 UL
LT0
LCb setrgbcolor
6212 3749 M
[ [(Times-Roman) 200.0 0.0 true true 0 (CP+PI)]
] -66.7 MRshow
LT0
6344 3694 327 110 80 45 0 PatternFill
LCb setrgbcolor
6344 3694 N
327 0 V
0 110 V
-327 0 V
0 -110 V
Z stroke
LT0
1520 704 91 1868 80 45 0 PatternFill
LCb setrgbcolor
1520 704 N
0 1867 V
90 0 V
0 -1867 V
-90 0 V
Z stroke
LT0
2481 704 91 1844 80 45 0 PatternFill
LCb setrgbcolor
2481 704 N
0 1843 V
90 0 V
0 -1843 V
-90 0 V
Z stroke
LT0
3442 704 91 1850 80 45 0 PatternFill
LCb setrgbcolor
3442 704 N
0 1849 V
90 0 V
0 -1849 V
-90 0 V
Z stroke
LT0
4403 704 91 1838 80 45 0 PatternFill
LCb setrgbcolor
4403 704 N
0 1837 V
90 0 V
0 -1837 V
-90 0 V
Z stroke
LT0
5364 704 91 1961 80 45 0 PatternFill
LCb setrgbcolor
5364 704 N
0 1960 V
90 0 V
0 -1960 V
-90 0 V
Z stroke
LT0
6325 704 92 1902 80 45 0 PatternFill
LCb setrgbcolor
6325 704 N
0 1901 V
91 0 V
0 -1901 V
-91 0 V
Z stroke
LT0
2.000 UL
PL LCb setrgbcolor
1565 2440 M
0 262 V
-31 -262 R
62 0 V
-62 262 R
62 0 V
930 -199 R
0 89 V
-31 -89 R
62 0 V
-62 89 R
62 0 V
930 -57 R
0 37 V
-31 -37 R
62 0 V
-62 37 R
62 0 V
930 -51 R
0 39 V
-31 -39 R
62 0 V
-62 39 R
62 0 V
930 -42 R
0 291 V
-31 -291 R
62 0 V
-62 291 R
62 0 V
930 -281 R
0 154 V
-31 -154 R
62 0 V
-62 154 R
62 0 V
stroke
1.000 UL
LT0
% End plot #5
% Begin plot #6
1.000 UL
LT0
LCb setrgbcolor
6212 3529 M
[ [(Times-Roman) 200.0 0.0 true true 0 (CP+PI+IOI)]
] -66.7 MRshow
LT0
0.800 6344 3474 327 110 BoxColFill
LCb setrgbcolor
6344 3474 N
327 0 V
0 110 V
-327 0 V
0 -110 V
Z stroke
LT0
0.800 1640 704 91 2264 BoxColFill
LCb setrgbcolor
1640 704 N
0 2263 V
90 0 V
0 -2263 V
-90 0 V
Z stroke
LT0
0.800 2601 704 91 2255 BoxColFill
LCb setrgbcolor
2601 704 N
0 2254 V
90 0 V
0 -2254 V
-90 0 V
Z stroke
LT0
0.800 3562 704 91 2288 BoxColFill
LCb setrgbcolor
3562 704 N
0 2287 V
90 0 V
0 -2287 V
-90 0 V
Z stroke
LT0
0.800 4523 704 91 2377 BoxColFill
LCb setrgbcolor
4523 704 N
0 2376 V
90 0 V
0 -2376 V
-90 0 V
Z stroke
LT0
0.800 5484 704 92 2305 BoxColFill
LCb setrgbcolor
5484 704 N
0 2304 V
91 0 V
0 -2304 V
-91 0 V
Z stroke
LT0
0.800 6446 704 91 2350 BoxColFill
LCb setrgbcolor
6446 704 N
0 2349 V
90 0 V
0 -2349 V
-90 0 V
Z stroke
LT0
2.000 UL
PL LCb setrgbcolor
1685 2950 M
0 34 V
-31 -34 R
62 0 V
-62 34 R
62 0 V
930 -39 R
0 26 V
-31 -26 R
62 0 V
-62 26 R
62 0 V
930 -36 R
0 111 V
-31 -111 R
62 0 V
-62 111 R
62 0 V
930 20 R
0 27 V
-31 -27 R
62 0 V
-62 27 R
62 0 V
931 -104 R
0 38 V
-31 -38 R
62 0 V
-62 38 R
62 0 V
930 2 R
0 49 V
-31 -49 R
62 0 V
-62 49 R
62 0 V
stroke
1.000 UL
LT0
% End plot #6
1.000 UL
LTb
748 3327 N
748 704 L
6055 0 V
0 2623 V
-6055 0 V
Z stroke
1.000 UP
1.000 UL
LTb
stroke
grestore
end
showpage
%%Trailer
%%DocumentFonts: Times-Roman
