%!PS-Adobe-2.0 EPSF-2.0
%%Title: ../figures/eval-analysis-postgres-ssd-wait-time.eps
%%Creator: gnuplot 4.4 patchlevel 3
%%CreationDate: Mon Feb  2 21:33:49 2015
%%DocumentFonts: (atend)
%%BoundingBox: 50 50 410 302
%%EndComments
%%BeginProlog
/gnudict 256 dict def
gnudict begin
%
% The following true/false flags may be edited by hand if desired.
% The unit line width and grayscale image gamma correction may also be changed.
%
/Color false def
/Blacktext false def
/Solid false def
/Dashlength 1 def
/Landscape false def
/Level1 false def
/Rounded false def
/ClipToBoundingBox false def
/TransparentPatterns false def
/gnulinewidth 5.000 def
/userlinewidth gnulinewidth def
/Gamma 1.0 def
%
/vshift -83 def
/dl1 {
  10.0 Dashlength mul mul
  Rounded { currentlinewidth 0.75 mul sub dup 0 le { pop 0.01 } if } if
} def
/dl2 {
  10.0 Dashlength mul mul
  Rounded { currentlinewidth 0.75 mul add } if
} def
/hpt_ 31.5 def
/vpt_ 31.5 def
/hpt hpt_ def
/vpt vpt_ def
Level1 {} {
/SDict 10 dict def
systemdict /pdfmark known not {
  userdict /pdfmark systemdict /cleartomark get put
} if
SDict begin [
  /Title (../figures/eval-analysis-postgres-ssd-wait-time.eps)
  /Subject (gnuplot plot)
  /Creator (gnuplot 4.4 patchlevel 3)
  /Author (kimsang)
%  /Producer (gnuplot)
%  /Keywords ()
  /CreationDate (Mon Feb  2 21:33:49 2015)
  /DOCINFO pdfmark
end
} ifelse
/doclip {
  ClipToBoundingBox {
    newpath 50 50 moveto 410 50 lineto 410 302 lineto 50 302 lineto closepath
    clip
  } if
} def
%
% Gnuplot Prolog Version 4.4 (August 2010)
%
%/SuppressPDFMark true def
%
/M {moveto} bind def
/L {lineto} bind def
/R {rmoveto} bind def
/V {rlineto} bind def
/N {newpath moveto} bind def
/Z {closepath} bind def
/C {setrgbcolor} bind def
/f {rlineto fill} bind def
/g {setgray} bind def
/Gshow {show} def   % May be redefined later in the file to support UTF-8
/vpt2 vpt 2 mul def
/hpt2 hpt 2 mul def
/Lshow {currentpoint stroke M 0 vshift R 
	Blacktext {gsave 0 setgray show grestore} {show} ifelse} def
/Rshow {currentpoint stroke M dup stringwidth pop neg vshift R
	Blacktext {gsave 0 setgray show grestore} {show} ifelse} def
/Cshow {currentpoint stroke M dup stringwidth pop -2 div vshift R 
	Blacktext {gsave 0 setgray show grestore} {show} ifelse} def
/UP {dup vpt_ mul /vpt exch def hpt_ mul /hpt exch def
  /hpt2 hpt 2 mul def /vpt2 vpt 2 mul def} def
/DL {Color {setrgbcolor Solid {pop []} if 0 setdash}
 {pop pop pop 0 setgray Solid {pop []} if 0 setdash} ifelse} def
/BL {stroke userlinewidth 2 mul setlinewidth
	Rounded {1 setlinejoin 1 setlinecap} if} def
/AL {stroke userlinewidth 2 div setlinewidth
	Rounded {1 setlinejoin 1 setlinecap} if} def
/UL {dup gnulinewidth mul /userlinewidth exch def
	dup 1 lt {pop 1} if 10 mul /udl exch def} def
/PL {stroke userlinewidth setlinewidth
	Rounded {1 setlinejoin 1 setlinecap} if} def
3.8 setmiterlimit
% Default Line colors
/LCw {1 1 1} def
/LCb {0 0 0} def
/LCa {0 0 0} def
/LC0 {1 0 0} def
/LC1 {0 1 0} def
/LC2 {0 0 1} def
/LC3 {1 0 1} def
/LC4 {0 1 1} def
/LC5 {1 1 0} def
/LC6 {0 0 0} def
/LC7 {1 0.3 0} def
/LC8 {0.5 0.5 0.5} def
% Default Line Types
/LTw {PL [] 1 setgray} def
/LTb {BL [] LCb DL} def
/LTa {AL [1 udl mul 2 udl mul] 0 setdash LCa setrgbcolor} def
/LT0 {PL [] LC0 DL} def
/LT1 {PL [4 dl1 2 dl2] LC1 DL} def
/LT2 {PL [2 dl1 3 dl2] LC2 DL} def
/LT3 {PL [1 dl1 1.5 dl2] LC3 DL} def
/LT4 {PL [6 dl1 2 dl2 1 dl1 2 dl2] LC4 DL} def
/LT5 {PL [3 dl1 3 dl2 1 dl1 3 dl2] LC5 DL} def
/LT6 {PL [2 dl1 2 dl2 2 dl1 6 dl2] LC6 DL} def
/LT7 {PL [1 dl1 2 dl2 6 dl1 2 dl2 1 dl1 2 dl2] LC7 DL} def
/LT8 {PL [2 dl1 2 dl2 2 dl1 2 dl2 2 dl1 2 dl2 2 dl1 4 dl2] LC8 DL} def
/Pnt {stroke [] 0 setdash gsave 1 setlinecap M 0 0 V stroke grestore} def
/Dia {stroke [] 0 setdash 2 copy vpt add M
  hpt neg vpt neg V hpt vpt neg V
  hpt vpt V hpt neg vpt V closepath stroke
  Pnt} def
/Pls {stroke [] 0 setdash vpt sub M 0 vpt2 V
  currentpoint stroke M
  hpt neg vpt neg R hpt2 0 V stroke
 } def
/Box {stroke [] 0 setdash 2 copy exch hpt sub exch vpt add M
  0 vpt2 neg V hpt2 0 V 0 vpt2 V
  hpt2 neg 0 V closepath stroke
  Pnt} def
/Crs {stroke [] 0 setdash exch hpt sub exch vpt add M
  hpt2 vpt2 neg V currentpoint stroke M
  hpt2 neg 0 R hpt2 vpt2 V stroke} def
/TriU {stroke [] 0 setdash 2 copy vpt 1.12 mul add M
  hpt neg vpt -1.62 mul V
  hpt 2 mul 0 V
  hpt neg vpt 1.62 mul V closepath stroke
  Pnt} def
/Star {2 copy Pls Crs} def
/BoxF {stroke [] 0 setdash exch hpt sub exch vpt add M
  0 vpt2 neg V hpt2 0 V 0 vpt2 V
  hpt2 neg 0 V closepath fill} def
/TriUF {stroke [] 0 setdash vpt 1.12 mul add M
  hpt neg vpt -1.62 mul V
  hpt 2 mul 0 V
  hpt neg vpt 1.62 mul V closepath fill} def
/TriD {stroke [] 0 setdash 2 copy vpt 1.12 mul sub M
  hpt neg vpt 1.62 mul V
  hpt 2 mul 0 V
  hpt neg vpt -1.62 mul V closepath stroke
  Pnt} def
/TriDF {stroke [] 0 setdash vpt 1.12 mul sub M
  hpt neg vpt 1.62 mul V
  hpt 2 mul 0 V
  hpt neg vpt -1.62 mul V closepath fill} def
/DiaF {stroke [] 0 setdash vpt add M
  hpt neg vpt neg V hpt vpt neg V
  hpt vpt V hpt neg vpt V closepath fill} def
/Pent {stroke [] 0 setdash 2 copy gsave
  translate 0 hpt M 4 {72 rotate 0 hpt L} repeat
  closepath stroke grestore Pnt} def
/PentF {stroke [] 0 setdash gsave
  translate 0 hpt M 4 {72 rotate 0 hpt L} repeat
  closepath fill grestore} def
/Circle {stroke [] 0 setdash 2 copy
  hpt 0 360 arc stroke Pnt} def
/CircleF {stroke [] 0 setdash hpt 0 360 arc fill} def
/C0 {BL [] 0 setdash 2 copy moveto vpt 90 450 arc} bind def
/C1 {BL [] 0 setdash 2 copy moveto
	2 copy vpt 0 90 arc closepath fill
	vpt 0 360 arc closepath} bind def
/C2 {BL [] 0 setdash 2 copy moveto
	2 copy vpt 90 180 arc closepath fill
	vpt 0 360 arc closepath} bind def
/C3 {BL [] 0 setdash 2 copy moveto
	2 copy vpt 0 180 arc closepath fill
	vpt 0 360 arc closepath} bind def
/C4 {BL [] 0 setdash 2 copy moveto
	2 copy vpt 180 270 arc closepath fill
	vpt 0 360 arc closepath} bind def
/C5 {BL [] 0 setdash 2 copy moveto
	2 copy vpt 0 90 arc
	2 copy moveto
	2 copy vpt 180 270 arc closepath fill
	vpt 0 360 arc} bind def
/C6 {BL [] 0 setdash 2 copy moveto
	2 copy vpt 90 270 arc closepath fill
	vpt 0 360 arc closepath} bind def
/C7 {BL [] 0 setdash 2 copy moveto
	2 copy vpt 0 270 arc closepath fill
	vpt 0 360 arc closepath} bind def
/C8 {BL [] 0 setdash 2 copy moveto
	2 copy vpt 270 360 arc closepath fill
	vpt 0 360 arc closepath} bind def
/C9 {BL [] 0 setdash 2 copy moveto
	2 copy vpt 270 450 arc closepath fill
	vpt 0 360 arc closepath} bind def
/C10 {BL [] 0 setdash 2 copy 2 copy moveto vpt 270 360 arc closepath fill
	2 copy moveto
	2 copy vpt 90 180 arc closepath fill
	vpt 0 360 arc closepath} bind def
/C11 {BL [] 0 setdash 2 copy moveto
	2 copy vpt 0 180 arc closepath fill
	2 copy moveto
	2 copy vpt 270 360 arc closepath fill
	vpt 0 360 arc closepath} bind def
/C12 {BL [] 0 setdash 2 copy moveto
	2 copy vpt 180 360 arc closepath fill
	vpt 0 360 arc closepath} bind def
/C13 {BL [] 0 setdash 2 copy moveto
	2 copy vpt 0 90 arc closepath fill
	2 copy moveto
	2 copy vpt 180 360 arc closepath fill
	vpt 0 360 arc closepath} bind def
/C14 {BL [] 0 setdash 2 copy moveto
	2 copy vpt 90 360 arc closepath fill
	vpt 0 360 arc} bind def
/C15 {BL [] 0 setdash 2 copy vpt 0 360 arc closepath fill
	vpt 0 360 arc closepath} bind def
/Rec {newpath 4 2 roll moveto 1 index 0 rlineto 0 exch rlineto
	neg 0 rlineto closepath} bind def
/Square {dup Rec} bind def
/Bsquare {vpt sub exch vpt sub exch vpt2 Square} bind def
/S0 {BL [] 0 setdash 2 copy moveto 0 vpt rlineto BL Bsquare} bind def
/S1 {BL [] 0 setdash 2 copy vpt Square fill Bsquare} bind def
/S2 {BL [] 0 setdash 2 copy exch vpt sub exch vpt Square fill Bsquare} bind def
/S3 {BL [] 0 setdash 2 copy exch vpt sub exch vpt2 vpt Rec fill Bsquare} bind def
/S4 {BL [] 0 setdash 2 copy exch vpt sub exch vpt sub vpt Square fill Bsquare} bind def
/S5 {BL [] 0 setdash 2 copy 2 copy vpt Square fill
	exch vpt sub exch vpt sub vpt Square fill Bsquare} bind def
/S6 {BL [] 0 setdash 2 copy exch vpt sub exch vpt sub vpt vpt2 Rec fill Bsquare} bind def
/S7 {BL [] 0 setdash 2 copy exch vpt sub exch vpt sub vpt vpt2 Rec fill
	2 copy vpt Square fill Bsquare} bind def
/S8 {BL [] 0 setdash 2 copy vpt sub vpt Square fill Bsquare} bind def
/S9 {BL [] 0 setdash 2 copy vpt sub vpt vpt2 Rec fill Bsquare} bind def
/S10 {BL [] 0 setdash 2 copy vpt sub vpt Square fill 2 copy exch vpt sub exch vpt Square fill
	Bsquare} bind def
/S11 {BL [] 0 setdash 2 copy vpt sub vpt Square fill 2 copy exch vpt sub exch vpt2 vpt Rec fill
	Bsquare} bind def
/S12 {BL [] 0 setdash 2 copy exch vpt sub exch vpt sub vpt2 vpt Rec fill Bsquare} bind def
/S13 {BL [] 0 setdash 2 copy exch vpt sub exch vpt sub vpt2 vpt Rec fill
	2 copy vpt Square fill Bsquare} bind def
/S14 {BL [] 0 setdash 2 copy exch vpt sub exch vpt sub vpt2 vpt Rec fill
	2 copy exch vpt sub exch vpt Square fill Bsquare} bind def
/S15 {BL [] 0 setdash 2 copy Bsquare fill Bsquare} bind def
/D0 {gsave translate 45 rotate 0 0 S0 stroke grestore} bind def
/D1 {gsave translate 45 rotate 0 0 S1 stroke grestore} bind def
/D2 {gsave translate 45 rotate 0 0 S2 stroke grestore} bind def
/D3 {gsave translate 45 rotate 0 0 S3 stroke grestore} bind def
/D4 {gsave translate 45 rotate 0 0 S4 stroke grestore} bind def
/D5 {gsave translate 45 rotate 0 0 S5 stroke grestore} bind def
/D6 {gsave translate 45 rotate 0 0 S6 stroke grestore} bind def
/D7 {gsave translate 45 rotate 0 0 S7 stroke grestore} bind def
/D8 {gsave translate 45 rotate 0 0 S8 stroke grestore} bind def
/D9 {gsave translate 45 rotate 0 0 S9 stroke grestore} bind def
/D10 {gsave translate 45 rotate 0 0 S10 stroke grestore} bind def
/D11 {gsave translate 45 rotate 0 0 S11 stroke grestore} bind def
/D12 {gsave translate 45 rotate 0 0 S12 stroke grestore} bind def
/D13 {gsave translate 45 rotate 0 0 S13 stroke grestore} bind def
/D14 {gsave translate 45 rotate 0 0 S14 stroke grestore} bind def
/D15 {gsave translate 45 rotate 0 0 S15 stroke grestore} bind def
/DiaE {stroke [] 0 setdash vpt add M
  hpt neg vpt neg V hpt vpt neg V
  hpt vpt V hpt neg vpt V closepath stroke} def
/BoxE {stroke [] 0 setdash exch hpt sub exch vpt add M
  0 vpt2 neg V hpt2 0 V 0 vpt2 V
  hpt2 neg 0 V closepath stroke} def
/TriUE {stroke [] 0 setdash vpt 1.12 mul add M
  hpt neg vpt -1.62 mul V
  hpt 2 mul 0 V
  hpt neg vpt 1.62 mul V closepath stroke} def
/TriDE {stroke [] 0 setdash vpt 1.12 mul sub M
  hpt neg vpt 1.62 mul V
  hpt 2 mul 0 V
  hpt neg vpt -1.62 mul V closepath stroke} def
/PentE {stroke [] 0 setdash gsave
  translate 0 hpt M 4 {72 rotate 0 hpt L} repeat
  closepath stroke grestore} def
/CircE {stroke [] 0 setdash 
  hpt 0 360 arc stroke} def
/Opaque {gsave closepath 1 setgray fill grestore 0 setgray closepath} def
/DiaW {stroke [] 0 setdash vpt add M
  hpt neg vpt neg V hpt vpt neg V
  hpt vpt V hpt neg vpt V Opaque stroke} def
/BoxW {stroke [] 0 setdash exch hpt sub exch vpt add M
  0 vpt2 neg V hpt2 0 V 0 vpt2 V
  hpt2 neg 0 V Opaque stroke} def
/TriUW {stroke [] 0 setdash vpt 1.12 mul add M
  hpt neg vpt -1.62 mul V
  hpt 2 mul 0 V
  hpt neg vpt 1.62 mul V Opaque stroke} def
/TriDW {stroke [] 0 setdash vpt 1.12 mul sub M
  hpt neg vpt 1.62 mul V
  hpt 2 mul 0 V
  hpt neg vpt -1.62 mul V Opaque stroke} def
/PentW {stroke [] 0 setdash gsave
  translate 0 hpt M 4 {72 rotate 0 hpt L} repeat
  Opaque stroke grestore} def
/CircW {stroke [] 0 setdash 
  hpt 0 360 arc Opaque stroke} def
/BoxFill {gsave Rec 1 setgray fill grestore} def
/Density {
  /Fillden exch def
  currentrgbcolor
  /ColB exch def /ColG exch def /ColR exch def
  /ColR ColR Fillden mul Fillden sub 1 add def
  /ColG ColG Fillden mul Fillden sub 1 add def
  /ColB ColB Fillden mul Fillden sub 1 add def
  ColR ColG ColB setrgbcolor} def
/BoxColFill {gsave Rec PolyFill} def
/PolyFill {gsave Density fill grestore grestore} def
/h {rlineto rlineto rlineto gsave closepath fill grestore} bind def
%
% PostScript Level 1 Pattern Fill routine for rectangles
% Usage: x y w h s a XX PatternFill
%	x,y = lower left corner of box to be filled
%	w,h = width and height of box
%	  a = angle in degrees between lines and x-axis
%	 XX = 0/1 for no/yes cross-hatch
%
/PatternFill {gsave /PFa [ 9 2 roll ] def
  PFa 0 get PFa 2 get 2 div add PFa 1 get PFa 3 get 2 div add translate
  PFa 2 get -2 div PFa 3 get -2 div PFa 2 get PFa 3 get Rec
  gsave 1 setgray fill grestore clip
  currentlinewidth 0.5 mul setlinewidth
  /PFs PFa 2 get dup mul PFa 3 get dup mul add sqrt def
  0 0 M PFa 5 get rotate PFs -2 div dup translate
  0 1 PFs PFa 4 get div 1 add floor cvi
	{PFa 4 get mul 0 M 0 PFs V} for
  0 PFa 6 get ne {
	0 1 PFs PFa 4 get div 1 add floor cvi
	{PFa 4 get mul 0 2 1 roll M PFs 0 V} for
 } if
  stroke grestore} def
%
/languagelevel where
 {pop languagelevel} {1} ifelse
 2 lt
	{/InterpretLevel1 true def}
	{/InterpretLevel1 Level1 def}
 ifelse
%
% PostScript level 2 pattern fill definitions
%
/Level2PatternFill {
/Tile8x8 {/PaintType 2 /PatternType 1 /TilingType 1 /BBox [0 0 8 8] /XStep 8 /YStep 8}
	bind def
/KeepColor {currentrgbcolor [/Pattern /DeviceRGB] setcolorspace} bind def
<< Tile8x8
 /PaintProc {0.5 setlinewidth pop 0 0 M 8 8 L 0 8 M 8 0 L stroke} 
>> matrix makepattern
/Pat1 exch def
<< Tile8x8
 /PaintProc {0.5 setlinewidth pop 0 0 M 8 8 L 0 8 M 8 0 L stroke
	0 4 M 4 8 L 8 4 L 4 0 L 0 4 L stroke}
>> matrix makepattern
/Pat2 exch def
<< Tile8x8
 /PaintProc {0.5 setlinewidth pop 0 0 M 0 8 L
	8 8 L 8 0 L 0 0 L fill}
>> matrix makepattern
/Pat3 exch def
<< Tile8x8
 /PaintProc {0.5 setlinewidth pop -4 8 M 8 -4 L
	0 12 M 12 0 L stroke}
>> matrix makepattern
/Pat4 exch def
<< Tile8x8
 /PaintProc {0.5 setlinewidth pop -4 0 M 8 12 L
	0 -4 M 12 8 L stroke}
>> matrix makepattern
/Pat5 exch def
<< Tile8x8
 /PaintProc {0.5 setlinewidth pop -2 8 M 4 -4 L
	0 12 M 8 -4 L 4 12 M 10 0 L stroke}
>> matrix makepattern
/Pat6 exch def
<< Tile8x8
 /PaintProc {0.5 setlinewidth pop -2 0 M 4 12 L
	0 -4 M 8 12 L 4 -4 M 10 8 L stroke}
>> matrix makepattern
/Pat7 exch def
<< Tile8x8
 /PaintProc {0.5 setlinewidth pop 8 -2 M -4 4 L
	12 0 M -4 8 L 12 4 M 0 10 L stroke}
>> matrix makepattern
/Pat8 exch def
<< Tile8x8
 /PaintProc {0.5 setlinewidth pop 0 -2 M 12 4 L
	-4 0 M 12 8 L -4 4 M 8 10 L stroke}
>> matrix makepattern
/Pat9 exch def
/Pattern1 {PatternBgnd KeepColor Pat1 setpattern} bind def
/Pattern2 {PatternBgnd KeepColor Pat2 setpattern} bind def
/Pattern3 {PatternBgnd KeepColor Pat3 setpattern} bind def
/Pattern4 {PatternBgnd KeepColor Landscape {Pat5} {Pat4} ifelse setpattern} bind def
/Pattern5 {PatternBgnd KeepColor Landscape {Pat4} {Pat5} ifelse setpattern} bind def
/Pattern6 {PatternBgnd KeepColor Landscape {Pat9} {Pat6} ifelse setpattern} bind def
/Pattern7 {PatternBgnd KeepColor Landscape {Pat8} {Pat7} ifelse setpattern} bind def
} def
%
%
%End of PostScript Level 2 code
%
/PatternBgnd {
  TransparentPatterns {} {gsave 1 setgray fill grestore} ifelse
} def
%
% Substitute for Level 2 pattern fill codes with
% grayscale if Level 2 support is not selected.
%
/Level1PatternFill {
/Pattern1 {0.250 Density} bind def
/Pattern2 {0.500 Density} bind def
/Pattern3 {0.750 Density} bind def
/Pattern4 {0.125 Density} bind def
/Pattern5 {0.375 Density} bind def
/Pattern6 {0.625 Density} bind def
/Pattern7 {0.875 Density} bind def
} def
%
% Now test for support of Level 2 code
%
Level1 {Level1PatternFill} {Level2PatternFill} ifelse
%
/Symbol-Oblique /Symbol findfont [1 0 .167 1 0 0] makefont
dup length dict begin {1 index /FID eq {pop pop} {def} ifelse} forall
currentdict end definefont pop
/MFshow {
   { dup 5 get 3 ge
     { 5 get 3 eq {gsave} {grestore} ifelse }
     {dup dup 0 get findfont exch 1 get scalefont setfont
     [ currentpoint ] exch dup 2 get 0 exch R dup 5 get 2 ne {dup dup 6
     get exch 4 get {Gshow} {stringwidth pop 0 R} ifelse }if dup 5 get 0 eq
     {dup 3 get {2 get neg 0 exch R pop} {pop aload pop M} ifelse} {dup 5
     get 1 eq {dup 2 get exch dup 3 get exch 6 get stringwidth pop -2 div
     dup 0 R} {dup 6 get stringwidth pop -2 div 0 R 6 get
     show 2 index {aload pop M neg 3 -1 roll neg R pop pop} {pop pop pop
     pop aload pop M} ifelse }ifelse }ifelse }
     ifelse }
   forall} def
/Gswidth {dup type /stringtype eq {stringwidth} {pop (n) stringwidth} ifelse} def
/MFwidth {0 exch { dup 5 get 3 ge { 5 get 3 eq { 0 } { pop } ifelse }
 {dup 3 get{dup dup 0 get findfont exch 1 get scalefont setfont
     6 get Gswidth pop add} {pop} ifelse} ifelse} forall} def
/MLshow { currentpoint stroke M
  0 exch R
  Blacktext {gsave 0 setgray MFshow grestore} {MFshow} ifelse } bind def
/MRshow { currentpoint stroke M
  exch dup MFwidth neg 3 -1 roll R
  Blacktext {gsave 0 setgray MFshow grestore} {MFshow} ifelse } bind def
/MCshow { currentpoint stroke M
  exch dup MFwidth -2 div 3 -1 roll R
  Blacktext {gsave 0 setgray MFshow grestore} {MFshow} ifelse } bind def
/XYsave    { [( ) 1 2 true false 3 ()] } bind def
/XYrestore { [( ) 1 2 true false 4 ()] } bind def
end
%%EndProlog
gnudict begin
gsave
doclip
50 50 translate
0.050 0.050 scale
0 setgray
newpath
(Times-Roman) findfont 250 scalefont setfont
1.000 UL
LTb
1.000 UL
LTa
1125 1416 M
1661 0 V
stroke
LTb
1125 1416 M
63 0 V
stroke
975 1416 M
[ [(Times-Roman) 250.0 0.0 true true 0 ( 0)]
] -83.3 MRshow
1.000 UL
LTb
1.000 UL
LTa
1125 2524 M
1661 0 V
stroke
LTb
1125 2524 M
63 0 V
stroke
975 2524 M
[ [(Times-Roman) 250.0 0.0 true true 0 ( 2000)]
] -83.3 MRshow
1.000 UL
LTb
1.000 UL
LTa
1125 3631 M
1661 0 V
stroke
LTb
1125 3631 M
63 0 V
stroke
975 3631 M
[ [(Times-Roman) 250.0 0.0 true true 0 ( 4000)]
] -83.3 MRshow
1.000 UL
LTb
1.000 UL
LTa
1125 4739 M
1661 0 V
stroke
LTb
1125 4739 M
63 0 V
stroke
975 4739 M
[ [(Times-Roman) 250.0 0.0 true true 0 ( 6000)]
] -83.3 MRshow
1.000 UL
LTb
1362 1416 M
0 63 V
stroke
1362 1266 M
currentpoint gsave translate -45 rotate 0 0 moveto
[ [(Times-Roman) 220.0 0.0 true true 0 (ALL)]
] -73.3 MLshow
grestore
1.000 UL
LTb
1600 1416 M
0 63 V
stroke
1600 1266 M
currentpoint gsave translate -45 rotate 0 0 moveto
[ [(Times-Roman) 220.0 0.0 true true 0 (SYNC)]
] -73.3 MLshow
grestore
1.000 UL
LTb
1837 1416 M
0 63 V
stroke
1837 1266 M
currentpoint gsave translate -45 rotate 0 0 moveto
[ [(Times-Roman) 220.0 0.0 true true 0 (WAL)]
] -73.3 MLshow
grestore
1.000 UL
LTb
2074 1416 M
0 63 V
stroke
2074 1266 M
currentpoint gsave translate -45 rotate 0 0 moveto
[ [(Times-Roman) 220.0 0.0 true true 0 (CP)]
] -73.3 MLshow
grestore
1.000 UL
LTb
2311 1416 M
0 63 V
stroke
2311 1266 M
currentpoint gsave translate -45 rotate 0 0 moveto
[ [(Times-Roman) 220.0 0.0 true true 0 (CP+PCI)]
] -73.3 MLshow
grestore
1.000 UL
LTb
2549 1416 M
0 63 V
stroke
2549 1266 M
currentpoint gsave translate -45 rotate 0 0 moveto
[ [(Times-Roman) 220.0 0.0 true true 0 (CP+PCI+IOCI)]
] -73.3 MLshow
grestore
1.000 UL
LTb
1.000 UL
LTb
1125 4739 N
0 -3323 V
1661 0 V
0 3323 V
-1661 0 V
Z stroke
LCb setrgbcolor
250 3077 M
currentpoint gsave translate -270 rotate 0 0 moveto
[ [(Times-Roman) 250.0 0.0 true true 0 (Total wait time \(s\))]
] -83.3 MCshow
grestore
LTb
1.000 UP
1.000 UL
LTb
% Begin plot #1
1.000 UL
LT0
LCb setrgbcolor
7049 2864 M
[ [(Times-Roman) 200.0 0.0 true true 0 (wait_on_page_writeback)]
] -66.7 MRshow
LT0
0.100 3236 2802 363 125 BoxColFill
3236 2802 N
363 0 V
0 124 V
-363 0 V
0 -124 V
Z stroke
LT0
0.100 1303 1416 120 835 BoxColFill
1303 1416 N
0 834 V
119 0 V
0 -834 V
-119 0 V
Z stroke
0.100 1540 1416 120 849 BoxColFill
1540 1416 N
0 848 V
119 0 V
0 -848 V
-119 0 V
Z stroke
0.100 1778 1416 119 686 BoxColFill
1778 1416 N
0 685 V
118 0 V
0 -685 V
-118 0 V
Z stroke
0.100 2015 1416 119 659 BoxColFill
2015 1416 N
0 658 V
118 0 V
0 -658 V
-118 0 V
Z stroke
0.100 2252 1416 120 700 BoxColFill
2252 1416 N
0 699 V
119 0 V
0 -699 V
-119 0 V
Z stroke
0.100 2489 1416 120 823 BoxColFill
2489 1416 N
0 822 V
119 0 V
0 -822 V
-119 0 V
Z stroke
% End plot #1
% Begin plot #2
1.000 UL
LT0
LCb setrgbcolor
7049 3114 M
[ [(Times-Roman) 200.0 0.0 true true 0 (sleep_on_shadow_bh)]
] -66.7 MRshow
LT0
3236 3052 363 125 80 -45 1 PatternFill
3236 3052 N
363 0 V
0 124 V
-363 0 V
0 -124 V
Z stroke
LT0
1303 2250 120 26 80 -45 1 PatternFill
1303 2250 N
0 25 V
119 0 V
0 -25 V
-119 0 V
Z stroke
1540 2264 120 43 80 -45 1 PatternFill
1540 2264 N
0 42 V
119 0 V
0 -42 V
-119 0 V
Z stroke
1778 2101 119 120 80 -45 1 PatternFill
1778 2101 N
0 119 V
118 0 V
0 -119 V
-118 0 V
Z stroke
2015 2074 119 833 80 -45 1 PatternFill
2015 2074 N
0 832 V
118 0 V
0 -832 V
-118 0 V
Z stroke
2252 2115 120 717 80 -45 1 PatternFill
2252 2115 N
0 716 V
119 0 V
0 -716 V
-119 0 V
Z stroke
2489 2238 120 33 80 -45 1 PatternFill
2489 2238 N
0 32 V
119 0 V
0 -32 V
-119 0 V
Z stroke
% End plot #2
% Begin plot #3
1.000 UL
LT0
LCb setrgbcolor
7049 3364 M
[ [(Times-Roman) 200.0 0.0 true true 0 (lock_bufer)]
] -66.7 MRshow
LT0
0.400 3236 3302 363 125 BoxColFill
3236 3302 N
363 0 V
0 124 V
-363 0 V
0 -124 V
Z stroke
LT0
0.400 1303 2275 120 3 BoxColFill
1303 2275 N
0 2 V
119 0 V
0 -2 V
-119 0 V
Z stroke
0.400 1540 2306 120 2 BoxColFill
1540 2306 N
0 1 V
119 0 V
0 -1 V
-119 0 V
Z stroke
0.400 1778 2220 119 89 BoxColFill
1778 2220 N
0 88 V
118 0 V
0 -88 V
-118 0 V
Z stroke
0.400 2015 2906 119 16 BoxColFill
2015 2906 N
0 15 V
118 0 V
0 -15 V
-118 0 V
Z stroke
0.400 2252 2831 120 26 BoxColFill
2252 2831 N
0 25 V
119 0 V
0 -25 V
-119 0 V
Z stroke
0.400 2489 2270 120 1 BoxColFill
2489 2270 N
119 0 V
-119 0 V
Z stroke
% End plot #3
% Begin plot #4
1.000 UL
LT0
LCb setrgbcolor
7049 3614 M
[ [(Times-Roman) 200.0 0.0 true true 0 (mutex_lock)]
] -66.7 MRshow
LT0
3236 3552 363 125 80 45 0 PatternFill
3236 3552 N
363 0 V
0 124 V
-363 0 V
0 -124 V
Z stroke
LT0
1303 2277 120 2 80 45 0 PatternFill
1303 2277 N
0 1 V
119 0 V
0 -1 V
-119 0 V
Z stroke
1540 2307 120 35 80 45 0 PatternFill
1540 2307 N
0 34 V
119 0 V
0 -34 V
-119 0 V
Z stroke
1778 2308 119 1462 80 45 0 PatternFill
1778 2308 N
0 1461 V
118 0 V
0 -1461 V
-118 0 V
Z stroke
2015 2921 119 1314 80 45 0 PatternFill
2015 2921 N
0 1313 V
118 0 V
0 -1313 V
-118 0 V
Z stroke
2252 2856 120 1423 80 45 0 PatternFill
2252 2856 N
0 1422 V
119 0 V
0 -1422 V
-119 0 V
Z stroke
2489 2270 120 65 80 45 0 PatternFill
2489 2270 N
0 64 V
119 0 V
0 -64 V
-119 0 V
Z stroke
% End plot #4
% Begin plot #5
1.000 UL
LT0
LCb setrgbcolor
7049 3864 M
[ [(Times-Roman) 200.0 0.0 true true 0 (wait_transaction_locked)]
] -66.7 MRshow
LT0
0.600 3236 3802 363 125 BoxColFill
3236 3802 N
363 0 V
0 124 V
-363 0 V
0 -124 V
Z stroke
LT0
0.600 1303 2278 120 2 BoxColFill
1303 2278 N
0 1 V
119 0 V
0 -1 V
-119 0 V
Z stroke
0.600 1540 2341 120 86 BoxColFill
1540 2341 N
0 85 V
119 0 V
0 -85 V
-119 0 V
Z stroke
0.600 1778 3769 119 917 BoxColFill
1778 3769 N
0 916 V
118 0 V
0 -916 V
-118 0 V
Z stroke
0.600 2015 4234 119 63 BoxColFill
2015 4234 N
0 62 V
118 0 V
0 -62 V
-118 0 V
Z stroke
0.600 2252 4278 120 122 BoxColFill
2252 4278 N
0 121 V
119 0 V
0 -121 V
-119 0 V
Z stroke
0.600 2489 2334 120 30 BoxColFill
2489 2334 N
0 29 V
119 0 V
0 -29 V
-119 0 V
Z stroke
% End plot #5
% Begin plot #6
1.000 UL
LT0
LCb setrgbcolor
7049 4114 M
[ [(Times-Roman) 200.0 0.0 true true 0 (down_read)]
] -66.7 MRshow
LT0
3236 4052 363 125 40 -30 0 PatternFill
3236 4052 N
363 0 V
0 124 V
-363 0 V
0 -124 V
Z stroke
LT0
1303 2279 120 1 40 -30 0 PatternFill
1303 2279 N
119 0 V
-119 0 V
Z stroke
1540 2426 120 3 40 -30 0 PatternFill
1540 2426 N
0 2 V
119 0 V
0 -2 V
-119 0 V
Z stroke
1778 4685 119 25 40 -30 0 PatternFill
1778 4685 N
0 24 V
118 0 V
0 -24 V
-118 0 V
Z stroke
2015 4296 119 40 40 -30 0 PatternFill
2015 4296 N
0 39 V
118 0 V
0 -39 V
-118 0 V
Z stroke
2252 4399 120 32 40 -30 0 PatternFill
2252 4399 N
0 31 V
119 0 V
0 -31 V
-119 0 V
Z stroke
2489 2363 120 1 40 -30 0 PatternFill
2489 2363 N
119 0 V
-119 0 V
Z stroke
% End plot #6
% Begin plot #7
1.000 UL
LT0
LCb setrgbcolor
7049 4364 M
[ [(Times-Roman) 200.0 0.0 true true 0 (etc)]
] -66.7 MRshow
LT0
0.800 3236 4302 363 125 BoxColFill
3236 4302 N
363 0 V
0 124 V
-363 0 V
0 -124 V
Z stroke
LT0
0.800 1303 2279 120 1 BoxColFill
1303 2279 N
119 0 V
-119 0 V
Z stroke
0.800 1540 2428 120 2 BoxColFill
1540 2428 N
0 1 V
119 0 V
0 -1 V
-119 0 V
Z stroke
0.800 1778 4709 119 13 BoxColFill
1778 4709 N
0 12 V
118 0 V
0 -12 V
-118 0 V
Z stroke
0.800 2015 4335 119 3 BoxColFill
2015 4335 N
0 2 V
118 0 V
0 -2 V
-118 0 V
Z stroke
0.800 2252 4430 120 3 BoxColFill
2252 4430 N
0 2 V
119 0 V
0 -2 V
-119 0 V
Z stroke
0.800 2489 2363 120 4 BoxColFill
2489 2363 N
0 3 V
119 0 V
0 -3 V
-119 0 V
Z stroke
% End plot #7
1.000 UL
LTb
1125 4739 N
0 -3323 V
1661 0 V
0 3323 V
-1661 0 V
Z stroke
1.000 UP
1.000 UL
LTb
stroke
grestore
end
showpage
%%Trailer
%%DocumentFonts: Times-Roman
