%!PS-Adobe-2.0 EPSF-2.0
%%Title: ../figures/motiv.eps
%%Creator: gnuplot 5.0 patchlevel 2
%%CreationDate: Tue Jan 17 14:02:12 2017
%%DocumentFonts: (atend)
%%BoundingBox: 50 50 410 251
%%EndComments
%%BeginProlog
/gnudict 256 dict def
gnudict begin
%
% The following true/false flags may be edited by hand if desired.
% The unit line width and grayscale image gamma correction may also be changed.
%
/Color true def
/Blacktext false def
/Solid false def
/Dashlength 1 def
/Landscape false def
/Level1 false def
/Level3 false def
/Rounded false def
/ClipToBoundingBox false def
/SuppressPDFMark false def
/TransparentPatterns false def
/gnulinewidth 5.000 def
/userlinewidth gnulinewidth def
/Gamma 1.0 def
/BackgroundColor {-1.000 -1.000 -1.000} def
%
/vshift -80 def
/dl1 {
  10.0 Dashlength userlinewidth gnulinewidth div mul mul mul
  Rounded { currentlinewidth 0.75 mul sub dup 0 le { pop 0.01 } if } if
} def
/dl2 {
  10.0 Dashlength userlinewidth gnulinewidth div mul mul mul
  Rounded { currentlinewidth 0.75 mul add } if
} def
/hpt_ 31.5 def
/vpt_ 31.5 def
/hpt hpt_ def
/vpt vpt_ def
/doclip {
  ClipToBoundingBox {
    newpath 50 50 moveto 410 50 lineto 410 251 lineto 50 251 lineto closepath
    clip
  } if
} def
%
% Gnuplot Prolog Version 5.1 (Oct 2015)
%
%/SuppressPDFMark true def
%
/M {moveto} bind def
/L {lineto} bind def
/R {rmoveto} bind def
/V {rlineto} bind def
/N {newpath moveto} bind def
/Z {closepath} bind def
/C {setrgbcolor} bind def
/f {rlineto fill} bind def
/g {setgray} bind def
/Gshow {show} def   % May be redefined later in the file to support UTF-8
/vpt2 vpt 2 mul def
/hpt2 hpt 2 mul def
/Lshow {currentpoint stroke M 0 vshift R 
	Blacktext {gsave 0 setgray textshow grestore} {textshow} ifelse} def
/Rshow {currentpoint stroke M dup stringwidth pop neg vshift R
	Blacktext {gsave 0 setgray textshow grestore} {textshow} ifelse} def
/Cshow {currentpoint stroke M dup stringwidth pop -2 div vshift R 
	Blacktext {gsave 0 setgray textshow grestore} {textshow} ifelse} def
/UP {dup vpt_ mul /vpt exch def hpt_ mul /hpt exch def
  /hpt2 hpt 2 mul def /vpt2 vpt 2 mul def} def
/DL {Color {setrgbcolor Solid {pop []} if 0 setdash}
 {pop pop pop 0 setgray Solid {pop []} if 0 setdash} ifelse} def
/BL {stroke userlinewidth 2 mul setlinewidth
	Rounded {1 setlinejoin 1 setlinecap} if} def
/AL {stroke userlinewidth 2 div setlinewidth
	Rounded {1 setlinejoin 1 setlinecap} if} def
/UL {dup gnulinewidth mul /userlinewidth exch def
	dup 1 lt {pop 1} if 10 mul /udl exch def} def
/PL {stroke userlinewidth setlinewidth
	Rounded {1 setlinejoin 1 setlinecap} if} def
3.8 setmiterlimit
% Classic Line colors (version 5.0)
/LCw {1 1 1} def
/LCb {0 0 0} def
/LCa {0 0 0} def
/LC0 {1 0 0} def
/LC1 {0 1 0} def
/LC2 {0 0 1} def
/LC3 {1 0 1} def
/LC4 {0 1 1} def
/LC5 {1 1 0} def
/LC6 {0 0 0} def
/LC7 {1 0.3 0} def
/LC8 {0.5 0.5 0.5} def
% Default dash patterns (version 5.0)
/LTB {BL [] LCb DL} def
/LTw {PL [] 1 setgray} def
/LTb {PL [] LCb DL} def
/LTa {AL [1 udl mul 2 udl mul] 0 setdash LCa setrgbcolor} def
/LT0 {PL [] LC0 DL} def
/LT1 {PL [2 dl1 3 dl2] LC1 DL} def
/LT2 {PL [1 dl1 1.5 dl2] LC2 DL} def
/LT3 {PL [6 dl1 2 dl2 1 dl1 2 dl2] LC3 DL} def
/LT4 {PL [1 dl1 2 dl2 6 dl1 2 dl2 1 dl1 2 dl2] LC4 DL} def
/LT5 {PL [4 dl1 2 dl2] LC5 DL} def
/LT6 {PL [1.5 dl1 1.5 dl2 1.5 dl1 1.5 dl2 1.5 dl1 6 dl2] LC6 DL} def
/LT7 {PL [3 dl1 3 dl2 1 dl1 3 dl2] LC7 DL} def
/LT8 {PL [2 dl1 2 dl2 2 dl1 6 dl2] LC8 DL} def
/SL {[] 0 setdash} def
/Pnt {stroke [] 0 setdash gsave 1 setlinecap M 0 0 V stroke grestore} def
/Dia {stroke [] 0 setdash 2 copy vpt add M
  hpt neg vpt neg V hpt vpt neg V
  hpt vpt V hpt neg vpt V closepath stroke
  Pnt} def
/Pls {stroke [] 0 setdash vpt sub M 0 vpt2 V
  currentpoint stroke M
  hpt neg vpt neg R hpt2 0 V stroke
 } def
/Box {stroke [] 0 setdash 2 copy exch hpt sub exch vpt add M
  0 vpt2 neg V hpt2 0 V 0 vpt2 V
  hpt2 neg 0 V closepath stroke
  Pnt} def
/Crs {stroke [] 0 setdash exch hpt sub exch vpt add M
  hpt2 vpt2 neg V currentpoint stroke M
  hpt2 neg 0 R hpt2 vpt2 V stroke} def
/TriU {stroke [] 0 setdash 2 copy vpt 1.12 mul add M
  hpt neg vpt -1.62 mul V
  hpt 2 mul 0 V
  hpt neg vpt 1.62 mul V closepath stroke
  Pnt} def
/Star {2 copy Pls Crs} def
/BoxF {stroke [] 0 setdash exch hpt sub exch vpt add M
  0 vpt2 neg V hpt2 0 V 0 vpt2 V
  hpt2 neg 0 V closepath fill} def
/TriUF {stroke [] 0 setdash vpt 1.12 mul add M
  hpt neg vpt -1.62 mul V
  hpt 2 mul 0 V
  hpt neg vpt 1.62 mul V closepath fill} def
/TriD {stroke [] 0 setdash 2 copy vpt 1.12 mul sub M
  hpt neg vpt 1.62 mul V
  hpt 2 mul 0 V
  hpt neg vpt -1.62 mul V closepath stroke
  Pnt} def
/TriDF {stroke [] 0 setdash vpt 1.12 mul sub M
  hpt neg vpt 1.62 mul V
  hpt 2 mul 0 V
  hpt neg vpt -1.62 mul V closepath fill} def
/DiaF {stroke [] 0 setdash vpt add M
  hpt neg vpt neg V hpt vpt neg V
  hpt vpt V hpt neg vpt V closepath fill} def
/Pent {stroke [] 0 setdash 2 copy gsave
  translate 0 hpt M 4 {72 rotate 0 hpt L} repeat
  closepath stroke grestore Pnt} def
/PentF {stroke [] 0 setdash gsave
  translate 0 hpt M 4 {72 rotate 0 hpt L} repeat
  closepath fill grestore} def
/Circle {stroke [] 0 setdash 2 copy
  hpt 0 360 arc stroke Pnt} def
/CircleF {stroke [] 0 setdash hpt 0 360 arc fill} def
/C0 {BL [] 0 setdash 2 copy moveto vpt 90 450 arc} bind def
/C1 {BL [] 0 setdash 2 copy moveto
	2 copy vpt 0 90 arc closepath fill
	vpt 0 360 arc closepath} bind def
/C2 {BL [] 0 setdash 2 copy moveto
	2 copy vpt 90 180 arc closepath fill
	vpt 0 360 arc closepath} bind def
/C3 {BL [] 0 setdash 2 copy moveto
	2 copy vpt 0 180 arc closepath fill
	vpt 0 360 arc closepath} bind def
/C4 {BL [] 0 setdash 2 copy moveto
	2 copy vpt 180 270 arc closepath fill
	vpt 0 360 arc closepath} bind def
/C5 {BL [] 0 setdash 2 copy moveto
	2 copy vpt 0 90 arc
	2 copy moveto
	2 copy vpt 180 270 arc closepath fill
	vpt 0 360 arc} bind def
/C6 {BL [] 0 setdash 2 copy moveto
	2 copy vpt 90 270 arc closepath fill
	vpt 0 360 arc closepath} bind def
/C7 {BL [] 0 setdash 2 copy moveto
	2 copy vpt 0 270 arc closepath fill
	vpt 0 360 arc closepath} bind def
/C8 {BL [] 0 setdash 2 copy moveto
	2 copy vpt 270 360 arc closepath fill
	vpt 0 360 arc closepath} bind def
/C9 {BL [] 0 setdash 2 copy moveto
	2 copy vpt 270 450 arc closepath fill
	vpt 0 360 arc closepath} bind def
/C10 {BL [] 0 setdash 2 copy 2 copy moveto vpt 270 360 arc closepath fill
	2 copy moveto
	2 copy vpt 90 180 arc closepath fill
	vpt 0 360 arc closepath} bind def
/C11 {BL [] 0 setdash 2 copy moveto
	2 copy vpt 0 180 arc closepath fill
	2 copy moveto
	2 copy vpt 270 360 arc closepath fill
	vpt 0 360 arc closepath} bind def
/C12 {BL [] 0 setdash 2 copy moveto
	2 copy vpt 180 360 arc closepath fill
	vpt 0 360 arc closepath} bind def
/C13 {BL [] 0 setdash 2 copy moveto
	2 copy vpt 0 90 arc closepath fill
	2 copy moveto
	2 copy vpt 180 360 arc closepath fill
	vpt 0 360 arc closepath} bind def
/C14 {BL [] 0 setdash 2 copy moveto
	2 copy vpt 90 360 arc closepath fill
	vpt 0 360 arc} bind def
/C15 {BL [] 0 setdash 2 copy vpt 0 360 arc closepath fill
	vpt 0 360 arc closepath} bind def
/Rec {newpath 4 2 roll moveto 1 index 0 rlineto 0 exch rlineto
	neg 0 rlineto closepath} bind def
/Square {dup Rec} bind def
/Bsquare {vpt sub exch vpt sub exch vpt2 Square} bind def
/S0 {BL [] 0 setdash 2 copy moveto 0 vpt rlineto BL Bsquare} bind def
/S1 {BL [] 0 setdash 2 copy vpt Square fill Bsquare} bind def
/S2 {BL [] 0 setdash 2 copy exch vpt sub exch vpt Square fill Bsquare} bind def
/S3 {BL [] 0 setdash 2 copy exch vpt sub exch vpt2 vpt Rec fill Bsquare} bind def
/S4 {BL [] 0 setdash 2 copy exch vpt sub exch vpt sub vpt Square fill Bsquare} bind def
/S5 {BL [] 0 setdash 2 copy 2 copy vpt Square fill
	exch vpt sub exch vpt sub vpt Square fill Bsquare} bind def
/S6 {BL [] 0 setdash 2 copy exch vpt sub exch vpt sub vpt vpt2 Rec fill Bsquare} bind def
/S7 {BL [] 0 setdash 2 copy exch vpt sub exch vpt sub vpt vpt2 Rec fill
	2 copy vpt Square fill Bsquare} bind def
/S8 {BL [] 0 setdash 2 copy vpt sub vpt Square fill Bsquare} bind def
/S9 {BL [] 0 setdash 2 copy vpt sub vpt vpt2 Rec fill Bsquare} bind def
/S10 {BL [] 0 setdash 2 copy vpt sub vpt Square fill 2 copy exch vpt sub exch vpt Square fill
	Bsquare} bind def
/S11 {BL [] 0 setdash 2 copy vpt sub vpt Square fill 2 copy exch vpt sub exch vpt2 vpt Rec fill
	Bsquare} bind def
/S12 {BL [] 0 setdash 2 copy exch vpt sub exch vpt sub vpt2 vpt Rec fill Bsquare} bind def
/S13 {BL [] 0 setdash 2 copy exch vpt sub exch vpt sub vpt2 vpt Rec fill
	2 copy vpt Square fill Bsquare} bind def
/S14 {BL [] 0 setdash 2 copy exch vpt sub exch vpt sub vpt2 vpt Rec fill
	2 copy exch vpt sub exch vpt Square fill Bsquare} bind def
/S15 {BL [] 0 setdash 2 copy Bsquare fill Bsquare} bind def
/D0 {gsave translate 45 rotate 0 0 S0 stroke grestore} bind def
/D1 {gsave translate 45 rotate 0 0 S1 stroke grestore} bind def
/D2 {gsave translate 45 rotate 0 0 S2 stroke grestore} bind def
/D3 {gsave translate 45 rotate 0 0 S3 stroke grestore} bind def
/D4 {gsave translate 45 rotate 0 0 S4 stroke grestore} bind def
/D5 {gsave translate 45 rotate 0 0 S5 stroke grestore} bind def
/D6 {gsave translate 45 rotate 0 0 S6 stroke grestore} bind def
/D7 {gsave translate 45 rotate 0 0 S7 stroke grestore} bind def
/D8 {gsave translate 45 rotate 0 0 S8 stroke grestore} bind def
/D9 {gsave translate 45 rotate 0 0 S9 stroke grestore} bind def
/D10 {gsave translate 45 rotate 0 0 S10 stroke grestore} bind def
/D11 {gsave translate 45 rotate 0 0 S11 stroke grestore} bind def
/D12 {gsave translate 45 rotate 0 0 S12 stroke grestore} bind def
/D13 {gsave translate 45 rotate 0 0 S13 stroke grestore} bind def
/D14 {gsave translate 45 rotate 0 0 S14 stroke grestore} bind def
/D15 {gsave translate 45 rotate 0 0 S15 stroke grestore} bind def
/DiaE {stroke [] 0 setdash vpt add M
  hpt neg vpt neg V hpt vpt neg V
  hpt vpt V hpt neg vpt V closepath stroke} def
/BoxE {stroke [] 0 setdash exch hpt sub exch vpt add M
  0 vpt2 neg V hpt2 0 V 0 vpt2 V
  hpt2 neg 0 V closepath stroke} def
/TriUE {stroke [] 0 setdash vpt 1.12 mul add M
  hpt neg vpt -1.62 mul V
  hpt 2 mul 0 V
  hpt neg vpt 1.62 mul V closepath stroke} def
/TriDE {stroke [] 0 setdash vpt 1.12 mul sub M
  hpt neg vpt 1.62 mul V
  hpt 2 mul 0 V
  hpt neg vpt -1.62 mul V closepath stroke} def
/PentE {stroke [] 0 setdash gsave
  translate 0 hpt M 4 {72 rotate 0 hpt L} repeat
  closepath stroke grestore} def
/CircE {stroke [] 0 setdash 
  hpt 0 360 arc stroke} def
/Opaque {gsave closepath 1 setgray fill grestore 0 setgray closepath} def
/DiaW {stroke [] 0 setdash vpt add M
  hpt neg vpt neg V hpt vpt neg V
  hpt vpt V hpt neg vpt V Opaque stroke} def
/BoxW {stroke [] 0 setdash exch hpt sub exch vpt add M
  0 vpt2 neg V hpt2 0 V 0 vpt2 V
  hpt2 neg 0 V Opaque stroke} def
/TriUW {stroke [] 0 setdash vpt 1.12 mul add M
  hpt neg vpt -1.62 mul V
  hpt 2 mul 0 V
  hpt neg vpt 1.62 mul V Opaque stroke} def
/TriDW {stroke [] 0 setdash vpt 1.12 mul sub M
  hpt neg vpt 1.62 mul V
  hpt 2 mul 0 V
  hpt neg vpt -1.62 mul V Opaque stroke} def
/PentW {stroke [] 0 setdash gsave
  translate 0 hpt M 4 {72 rotate 0 hpt L} repeat
  Opaque stroke grestore} def
/CircW {stroke [] 0 setdash 
  hpt 0 360 arc Opaque stroke} def
/BoxFill {gsave Rec 1 setgray fill grestore} def
/Density {
  /Fillden exch def
  currentrgbcolor
  /ColB exch def /ColG exch def /ColR exch def
  /ColR ColR Fillden mul Fillden sub 1 add def
  /ColG ColG Fillden mul Fillden sub 1 add def
  /ColB ColB Fillden mul Fillden sub 1 add def
  ColR ColG ColB setrgbcolor} def
/BoxColFill {gsave Rec PolyFill} def
/PolyFill {gsave Density fill grestore grestore} def
/h {rlineto rlineto rlineto gsave closepath fill grestore} bind def
%
% PostScript Level 1 Pattern Fill routine for rectangles
% Usage: x y w h s a XX PatternFill
%	x,y = lower left corner of box to be filled
%	w,h = width and height of box
%	  a = angle in degrees between lines and x-axis
%	 XX = 0/1 for no/yes cross-hatch
%
/PatternFill {gsave /PFa [ 9 2 roll ] def
  PFa 0 get PFa 2 get 2 div add PFa 1 get PFa 3 get 2 div add translate
  PFa 2 get -2 div PFa 3 get -2 div PFa 2 get PFa 3 get Rec
  TransparentPatterns {} {gsave 1 setgray fill grestore} ifelse
  clip
  currentlinewidth 0.5 mul setlinewidth
  /PFs PFa 2 get dup mul PFa 3 get dup mul add sqrt def
  0 0 M PFa 5 get rotate PFs -2 div dup translate
  0 1 PFs PFa 4 get div 1 add floor cvi
	{PFa 4 get mul 0 M 0 PFs V} for
  0 PFa 6 get ne {
	0 1 PFs PFa 4 get div 1 add floor cvi
	{PFa 4 get mul 0 2 1 roll M PFs 0 V} for
 } if
  stroke grestore} def
%
/languagelevel where
 {pop languagelevel} {1} ifelse
dup 2 lt
	{/InterpretLevel1 true def
	 /InterpretLevel3 false def}
	{/InterpretLevel1 Level1 def
	 2 gt
	    {/InterpretLevel3 Level3 def}
	    {/InterpretLevel3 false def}
	 ifelse }
 ifelse
%
% PostScript level 2 pattern fill definitions
%
/Level2PatternFill {
/Tile8x8 {/PaintType 2 /PatternType 1 /TilingType 1 /BBox [0 0 8 8] /XStep 8 /YStep 8}
	bind def
/KeepColor {currentrgbcolor [/Pattern /DeviceRGB] setcolorspace} bind def
<< Tile8x8
 /PaintProc {0.5 setlinewidth pop 0 0 M 8 8 L 0 8 M 8 0 L stroke} 
>> matrix makepattern
/Pat1 exch def
<< Tile8x8
 /PaintProc {0.5 setlinewidth pop 0 0 M 8 8 L 0 8 M 8 0 L stroke
	0 4 M 4 8 L 8 4 L 4 0 L 0 4 L stroke}
>> matrix makepattern
/Pat2 exch def
<< Tile8x8
 /PaintProc {0.5 setlinewidth pop 0 0 M 0 8 L
	8 8 L 8 0 L 0 0 L fill}
>> matrix makepattern
/Pat3 exch def
<< Tile8x8
 /PaintProc {0.5 setlinewidth pop -4 8 M 8 -4 L
	0 12 M 12 0 L stroke}
>> matrix makepattern
/Pat4 exch def
<< Tile8x8
 /PaintProc {0.5 setlinewidth pop -4 0 M 8 12 L
	0 -4 M 12 8 L stroke}
>> matrix makepattern
/Pat5 exch def
<< Tile8x8
 /PaintProc {0.5 setlinewidth pop -2 8 M 4 -4 L
	0 12 M 8 -4 L 4 12 M 10 0 L stroke}
>> matrix makepattern
/Pat6 exch def
<< Tile8x8
 /PaintProc {0.5 setlinewidth pop -2 0 M 4 12 L
	0 -4 M 8 12 L 4 -4 M 10 8 L stroke}
>> matrix makepattern
/Pat7 exch def
<< Tile8x8
 /PaintProc {0.5 setlinewidth pop 8 -2 M -4 4 L
	12 0 M -4 8 L 12 4 M 0 10 L stroke}
>> matrix makepattern
/Pat8 exch def
<< Tile8x8
 /PaintProc {0.5 setlinewidth pop 0 -2 M 12 4 L
	-4 0 M 12 8 L -4 4 M 8 10 L stroke}
>> matrix makepattern
/Pat9 exch def
/Pattern1 {PatternBgnd KeepColor Pat1 setpattern} bind def
/Pattern2 {PatternBgnd KeepColor Pat2 setpattern} bind def
/Pattern3 {PatternBgnd KeepColor Pat3 setpattern} bind def
/Pattern4 {PatternBgnd KeepColor Landscape {Pat5} {Pat4} ifelse setpattern} bind def
/Pattern5 {PatternBgnd KeepColor Landscape {Pat4} {Pat5} ifelse setpattern} bind def
/Pattern6 {PatternBgnd KeepColor Landscape {Pat9} {Pat6} ifelse setpattern} bind def
/Pattern7 {PatternBgnd KeepColor Landscape {Pat8} {Pat7} ifelse setpattern} bind def
} def
%
%
%End of PostScript Level 2 code
%
/PatternBgnd {
  TransparentPatterns {} {gsave 1 setgray fill grestore} ifelse
} def
%
% Substitute for Level 2 pattern fill codes with
% grayscale if Level 2 support is not selected.
%
/Level1PatternFill {
/Pattern1 {0.250 Density} bind def
/Pattern2 {0.500 Density} bind def
/Pattern3 {0.750 Density} bind def
/Pattern4 {0.125 Density} bind def
/Pattern5 {0.375 Density} bind def
/Pattern6 {0.625 Density} bind def
/Pattern7 {0.875 Density} bind def
} def
%
% Now test for support of Level 2 code
%
Level1 {Level1PatternFill} {Level2PatternFill} ifelse
%
/Symbol-Oblique /Symbol findfont [1 0 .167 1 0 0] makefont
dup length dict begin {1 index /FID eq {pop pop} {def} ifelse} forall
currentdict end definefont pop
%
/MFshow {
   { dup 5 get 3 ge
     { 5 get 3 eq {gsave} {grestore} ifelse }
     {dup dup 0 get findfont exch 1 get scalefont setfont
     [ currentpoint ] exch dup 2 get 0 exch R dup 5 get 2 ne {dup dup 6
     get exch 4 get {textshow} {stringwidth pop 0 R} ifelse }if dup 5 get 0 eq
     {dup 3 get {2 get neg 0 exch R pop} {pop aload pop M} ifelse} {dup 5
     get 1 eq {dup 2 get exch dup 3 get exch 6 get stringwidth pop -2 div
     dup 0 R} {dup 6 get stringwidth pop -2 div 0 R 6 get
     textshow 2 index {aload pop M neg 3 -1 roll neg R pop pop} {pop pop pop
     pop aload pop M} ifelse }ifelse }ifelse }
     ifelse }
   forall} def
/Gswidth {dup type /stringtype eq {stringwidth} {pop (n) stringwidth} ifelse} def
/MFwidth {0 exch { dup 5 get 3 ge { 5 get 3 eq { 0 } { pop } ifelse }
 {dup 3 get{dup dup 0 get findfont exch 1 get scalefont setfont
     6 get Gswidth pop add} {pop} ifelse} ifelse} forall} def
/MLshow { currentpoint stroke M
  0 exch R
  Blacktext {gsave 0 setgray MFshow grestore} {MFshow} ifelse } bind def
/MRshow { currentpoint stroke M
  exch dup MFwidth neg 3 -1 roll R
  Blacktext {gsave 0 setgray MFshow grestore} {MFshow} ifelse } bind def
/MCshow { currentpoint stroke M
  exch dup MFwidth -2 div 3 -1 roll R
  Blacktext {gsave 0 setgray MFshow grestore} {MFshow} ifelse } bind def
/XYsave    { [( ) 1 2 true false 3 ()] } bind def
/XYrestore { [( ) 1 2 true false 4 ()] } bind def
Level1 SuppressPDFMark or 
{} {
/SDict 10 dict def
systemdict /pdfmark known not {
  userdict /pdfmark systemdict /cleartomark get put
} if
SDict begin [
  /Title (../figures/motiv.eps)
  /Subject (gnuplot plot)
  /Creator (gnuplot 5.0 patchlevel 2)
  /Author (swkim)
%  /Producer (gnuplot)
%  /Keywords ()
  /CreationDate (Tue Jan 17 14:02:12 2017)
  /DOCINFO pdfmark
end
} ifelse
%
% Support for boxed text - Ethan A Merritt May 2005
%
/InitTextBox { userdict /TBy2 3 -1 roll put userdict /TBx2 3 -1 roll put
           userdict /TBy1 3 -1 roll put userdict /TBx1 3 -1 roll put
	   /Boxing true def } def
/ExtendTextBox { Boxing
    { gsave dup false charpath pathbbox
      dup TBy2 gt {userdict /TBy2 3 -1 roll put} {pop} ifelse
      dup TBx2 gt {userdict /TBx2 3 -1 roll put} {pop} ifelse
      dup TBy1 lt {userdict /TBy1 3 -1 roll put} {pop} ifelse
      dup TBx1 lt {userdict /TBx1 3 -1 roll put} {pop} ifelse
      grestore } if } def
/PopTextBox { newpath TBx1 TBxmargin sub TBy1 TBymargin sub M
               TBx1 TBxmargin sub TBy2 TBymargin add L
	       TBx2 TBxmargin add TBy2 TBymargin add L
	       TBx2 TBxmargin add TBy1 TBymargin sub L closepath } def
/DrawTextBox { PopTextBox stroke /Boxing false def} def
/FillTextBox { gsave PopTextBox 1 1 1 setrgbcolor fill grestore /Boxing false def} def
0 0 0 0 InitTextBox
/TBxmargin 20 def
/TBymargin 20 def
/Boxing false def
/textshow { ExtendTextBox Gshow } def
%
% redundant definitions for compatibility with prologue.ps older than 5.0.2
/LTB {BL [] LCb DL} def
/LTb {PL [] LCb DL} def
end
%%EndProlog
%%Page: 1 1
gnudict begin
gsave
doclip
50 50 translate
0.050 0.050 scale
0 setgray
newpath
(Times-Roman) findfont 240 scalefont setfont
BackgroundColor 0 lt 3 1 roll 0 lt exch 0 lt or or not {BackgroundColor C 1.000 0 0 7200.00 4032.00 BoxColFill} if
1.000 UL
LTb
LCb setrgbcolor
888 768 M
63 0 V
stroke
744 768 M
[ [(Times-Roman) 240.0 0.0 true true 0 ( 0)]
] -80.0 MRshow
1.000 UL
LTb
LCb setrgbcolor
888 1184 M
63 0 V
stroke
744 1184 M
[ [(Times-Roman) 240.0 0.0 true true 0 ( 5)]
] -80.0 MRshow
1.000 UL
LTb
LCb setrgbcolor
888 1600 M
63 0 V
stroke
744 1600 M
[ [(Times-Roman) 240.0 0.0 true true 0 ( 10)]
] -80.0 MRshow
1.000 UL
LTb
LCb setrgbcolor
888 2016 M
63 0 V
stroke
744 2016 M
[ [(Times-Roman) 240.0 0.0 true true 0 ( 15)]
] -80.0 MRshow
1.000 UL
LTb
LCb setrgbcolor
888 2431 M
63 0 V
stroke
744 2431 M
[ [(Times-Roman) 240.0 0.0 true true 0 ( 20)]
] -80.0 MRshow
1.000 UL
LTb
LCb setrgbcolor
888 2847 M
63 0 V
stroke
744 2847 M
[ [(Times-Roman) 240.0 0.0 true true 0 ( 25)]
] -80.0 MRshow
1.000 UL
LTb
LCb setrgbcolor
888 3263 M
63 0 V
stroke
744 3263 M
[ [(Times-Roman) 240.0 0.0 true true 0 ( 30)]
] -80.0 MRshow
1.000 UL
LTb
LCb setrgbcolor
888 768 M
0 63 V
stroke
888 528 M
[ [(Times-Roman) 240.0 0.0 true true 0 ( 0)]
] -80.0 MCshow
1.000 UL
LTb
LCb setrgbcolor
1868 768 M
0 63 V
stroke
1868 528 M
[ [(Times-Roman) 240.0 0.0 true true 0 ( 5)]
] -80.0 MCshow
1.000 UL
LTb
LCb setrgbcolor
2848 768 M
0 63 V
stroke
2848 528 M
[ [(Times-Roman) 240.0 0.0 true true 0 ( 10)]
] -80.0 MCshow
1.000 UL
LTb
LCb setrgbcolor
3828 768 M
0 63 V
stroke
3828 528 M
[ [(Times-Roman) 240.0 0.0 true true 0 ( 15)]
] -80.0 MCshow
1.000 UL
LTb
LCb setrgbcolor
4807 768 M
0 63 V
stroke
4807 528 M
[ [(Times-Roman) 240.0 0.0 true true 0 ( 20)]
] -80.0 MCshow
1.000 UL
LTb
LCb setrgbcolor
5787 768 M
0 63 V
stroke
5787 528 M
[ [(Times-Roman) 240.0 0.0 true true 0 ( 25)]
] -80.0 MCshow
1.000 UL
LTb
LCb setrgbcolor
6767 768 M
0 63 V
stroke
6767 528 M
[ [(Times-Roman) 240.0 0.0 true true 0 ( 30)]
] -80.0 MCshow
1.000 UL
LTb
LCb setrgbcolor
1.000 UL
LTB
LCb setrgbcolor
888 3263 N
888 768 L
5879 0 V
0 2495 V
-5879 0 V
Z stroke
1.000 UP
1.000 UL
LTb
LCb setrgbcolor
LCb setrgbcolor
192 2015 M
currentpoint gsave translate -270 rotate 0 0 moveto
[ [(Times-Roman) 240.0 0.0 true true 0 (Operation thput \(Kops/sec\))]
] -80.0 MCshow
grestore
LTb
LCb setrgbcolor
3827 168 M
[ [(Times-Roman) 240.0 0.0 true true 0 (Elapsed time \(min\))]
] -80.0 MCshow
LTb
% Begin plot #1
8.000 UL
LTb
0.75 0.75 0.75 C LCb setrgbcolor
1826 3849 M
[ [(Times-Roman) 240.0 0.0 true true 0 (CFQ)]
] -80.0 MRshow
8.000 UL
LTb
0.75 0.75 0.75 C 1970 3849 M
495 0 V
921 2742 M
32 346 V
33 -77 V
33 -545 V
32 621 V
33 -758 V
1117 768 L
32 0 V
33 0 V
33 1772 V
32 -1181 V
33 802 V
33 39 V
1345 768 L
33 0 V
33 133 V
32 2149 V
33 21 V
33 -212 V
32 251 V
33 -355 V
33 347 V
32 -263 V
33 -1218 V
33 -853 V
32 0 V
33 0 V
33 0 V
32 0 V
33 1638 V
1900 893 L
33 -125 V
33 0 V
32 0 V
33 0 V
33 1975 V
32 349 V
33 -18 V
33 -179 V
32 125 V
33 25 V
33 -114 V
2292 768 L
33 0 V
33 0 V
32 0 V
33 0 V
33 0 V
32 0 V
33 577 V
33 -575 V
32 -2 V
33 0 V
33 1362 V
32 935 V
33 23 V
33 53 V
32 -84 V
33 -309 V
33 -18 V
32 -1247 V
33 -715 V
33 0 V
32 0 V
33 0 V
33 0 V
32 0 V
33 0 V
33 439 V
32 515 V
33 -954 V
33 0 V
32 2326 V
33 31 V
33 -180 V
32 16 V
33 83 V
33 -335 V
32 254 V
33 -1229 V
33 -966 V
32 0 V
33 0 V
33 0 V
32 0 V
33 0 V
33 0 V
32 0 V
33 1720 V
33 554 V
32 68 V
33 -176 V
32 -62 V
3958 926 L
33 -158 V
32 0 V
33 0 V
33 0 V
32 0 V
33 0 V
33 0 V
32 0 V
33 201 V
33 2100 V
32 -593 V
33 146 V
33 459 V
32 -226 V
33 36 V
33 -38 V
32 -797 V
4546 768 L
33 0 V
32 0 V
33 0 V
33 0 V
32 0 V
33 0 V
33 229 V
32 1207 V
33 -594 V
33 -842 V
32 0 V
33 0 V
33 1225 V
32 1098 V
33 -52 V
33 -354 V
32 327 V
33 77 V
33 -72 V
32 -61 V
33 -441 V
5265 768 L
32 0 V
33 0 V
33 0 V
32 0 V
33 0 V
33 0 V
32 0 V
33 1 V
33 311 V
32 -312 V
33 0 V
33 0 V
32 17 V
33 1974 V
33 81 V
32 210 V
33 9 V
32 -151 V
33 128 V
33 -97 V
32 -1926 V
33 -245 V
33 0 V
32 0 V
33 0 V
33 0 V
32 0 V
33 0 V
33 319 V
32 470 V
33 -789 V
33 0 V
32 348 V
33 1982 V
33 -130 V
32 -455 V
33 526 V
33 -254 V
32 242 V
33 -576 V
33 -1232 V
32 -451 V
33 0 V
33 0 V
32 0 V
33 0 V
% End plot #1
% Begin plot #2
stroke
6.000 UL
LTb
0.00 1.00 0.00 C LCb setrgbcolor
1826 3609 M
[ [(Times-Roman) 240.0 0.0 true true 0 (CFQ-IDLE)]
] -80.0 MRshow
6.000 UL
LTb
0.00 1.00 0.00 C 1970 3609 M
495 0 V
921 2676 M
32 386 V
33 8 V
33 -48 V
32 -24 V
33 -295 V
1117 768 L
32 0 V
33 0 V
33 443 V
32 767 V
33 818 V
33 -275 V
1345 768 L
33 1537 V
33 726 V
32 19 V
33 -128 V
33 72 V
32 -23 V
33 4 V
33 64 V
32 -144 V
33 -1346 V
33 -781 V
32 0 V
33 0 V
33 0 V
32 0 V
33 0 V
32 262 V
33 874 V
1966 768 L
32 0 V
33 0 V
33 1 V
32 2254 V
33 -2 V
33 10 V
32 16 V
33 12 V
33 -58 V
32 -211 V
33 -1162 V
33 -860 V
32 0 V
33 0 V
33 0 V
32 0 V
33 472 V
33 1041 V
32 -675 V
33 -838 V
33 0 V
32 0 V
33 1173 V
33 1148 V
32 -26 V
33 -420 V
33 431 V
32 -299 V
33 130 V
33 -1187 V
32 -950 V
33 0 V
33 0 V
32 0 V
33 0 V
33 0 V
32 0 V
33 1373 V
3240 768 L
32 0 V
33 1088 V
33 1133 V
32 -246 V
33 -55 V
33 271 V
32 51 V
33 -49 V
33 111 V
3566 955 L
33 -187 V
33 0 V
32 0 V
33 0 V
33 0 V
32 0 V
33 0 V
33 1344 V
32 -1093 V
33 -144 V
32 74 V
33 166 V
33 826 V
4023 768 L
33 0 V
33 0 V
32 0 V
33 1254 V
33 1001 V
32 15 V
33 0 V
33 -40 V
32 -47 V
33 33 V
33 -420 V
4415 768 L
33 0 V
33 0 V
32 0 V
33 0 V
33 0 V
32 0 V
33 0 V
33 1163 V
4709 782 L
33 119 V
33 34 V
32 906 V
33 -718 V
33 -355 V
32 0 V
33 0 V
33 1189 V
32 1119 V
33 -153 V
33 -4 V
32 100 V
33 -183 V
33 0 V
32 -176 V
33 -290 V
5265 768 L
32 0 V
33 0 V
33 0 V
32 0 V
33 0 V
33 0 V
32 0 V
33 164 V
33 634 V
32 -55 V
33 -743 V
33 0 V
32 1 V
33 1791 V
33 -432 V
32 884 V
33 -32 V
32 -26 V
33 27 V
33 55 V
32 -1677 V
33 -591 V
33 0 V
32 0 V
33 0 V
33 0 V
32 0 V
33 0 V
33 667 V
32 634 V
6277 768 L
33 0 V
32 0 V
33 737 V
33 1489 V
32 62 V
33 -122 V
33 61 V
32 -7 V
33 -265 V
33 81 V
32 -1727 V
33 -309 V
33 0 V
32 0 V
33 0 V
% End plot #2
% Begin plot #3
stroke
3.000 UL
LTb
LT2
0.00 0.00 1.00 C LCb setrgbcolor
3905 3849 M
[ [(Times-Roman) 240.0 0.0 true true 0 (SPLIT-A)]
] -80.0 MRshow
3.000 UL
LTb
LT2
0.00 0.00 1.00 C 4049 3849 M
495 0 V
921 1095 M
32 790 V
33 53 V
33 155 V
32 -43 V
33 -374 V
33 -561 V
32 420 V
33 264 V
33 -531 V
32 -210 V
33 192 V
33 188 V
32 44 V
33 611 V
33 -754 V
32 452 V
33 364 V
33 -664 V
32 285 V
33 -57 V
33 -689 V
32 -72 V
33 954 V
33 -346 V
32 -89 V
33 -13 V
33 -129 V
32 -464 V
33 228 V
32 818 V
33 -387 V
33 531 V
32 -945 V
33 657 V
33 -678 V
32 255 V
33 558 V
33 -299 V
32 -165 V
33 534 V
33 -336 V
32 -874 V
33 0 V
33 0 V
32 0 V
33 0 V
33 0 V
32 302 V
33 664 V
33 525 V
32 -340 V
33 -619 V
33 64 V
32 22 V
33 271 V
33 -326 V
32 -210 V
33 247 V
33 474 V
32 349 V
33 -149 V
2946 940 L
32 77 V
33 -193 V
33 981 V
32 -216 V
33 -113 V
33 22 V
32 -318 V
33 -217 V
33 142 V
32 411 V
33 -27 V
33 360 V
32 -610 V
33 -217 V
33 -50 V
32 -166 V
33 50 V
33 0 V
32 242 V
33 -115 V
33 259 V
32 118 V
33 18 V
33 -59 V
32 94 V
33 1822 V
33 -1835 V
32 -359 V
33 -212 V
32 533 V
33 716 V
33 254 V
32 -729 V
33 -156 V
33 -25 V
32 829 V
33 -898 V
33 -4 V
32 -35 V
33 -90 V
33 555 V
32 -280 V
33 -731 V
33 0 V
32 1902 V
33 -383 V
33 -526 V
32 -621 V
33 -132 V
33 -42 V
32 -17 V
33 17 V
33 66 V
32 -16 V
33 1283 V
33 -640 V
32 -247 V
33 482 V
33 226 V
32 183 V
33 -241 V
33 616 V
32 -899 V
33 -113 V
33 -289 V
32 -52 V
33 90 V
33 -112 V
32 104 V
33 37 V
33 -61 V
32 85 V
33 21 V
33 57 V
32 -27 V
33 -162 V
33 215 V
32 -349 V
33 -352 V
33 1683 V
32 -596 V
33 269 V
33 -820 V
32 -105 V
33 174 V
33 -23 V
32 62 V
33 -52 V
32 -517 V
33 71 V
33 859 V
32 131 V
33 -118 V
33 558 V
32 -1137 V
33 -408 V
33 146 V
32 391 V
33 -364 V
33 -82 V
32 778 V
33 160 V
33 -564 V
32 19 V
stroke 6342 1386 M
33 -64 V
33 -384 V
32 138 V
33 56 V
33 -85 V
32 446 V
33 -580 V
33 431 V
32 -396 V
33 538 V
33 -26 V
32 -9 V
33 -73 V
% End plot #3
% Begin plot #4
stroke
LTb
LT3
1.00 0.00 0.00 C LCb setrgbcolor
3905 3609 M
[ [(Times-Roman) 240.0 0.0 true true 0 (SPLIT-D)]
] -80.0 MRshow
3.000 UL
LTb
LT3
1.00 0.00 0.00 C 4049 3609 M
495 0 V
921 936 M
32 1249 V
33 -902 V
33 196 V
32 -77 V
33 -185 V
33 53 V
32 -227 V
33 277 V
33 300 V
32 -219 V
33 286 V
33 -413 V
32 229 V
33 268 V
33 -218 V
32 79 V
33 -524 V
33 594 V
32 126 V
33 -309 V
33 148 V
32 -61 V
33 204 V
33 -316 V
32 -118 V
33 18 V
33 -67 V
32 444 V
33 -242 V
32 36 V
33 -276 V
33 0 V
32 -83 V
33 -260 V
33 613 V
32 -269 V
33 284 V
33 -482 V
32 308 V
33 991 V
33 -1259 V
32 347 V
33 -100 V
33 -304 V
32 141 V
33 283 V
33 35 V
32 -510 V
33 712 V
33 274 V
32 -751 V
33 33 V
33 -32 V
32 256 V
33 -110 V
33 -261 V
32 606 V
33 -550 V
33 377 V
32 79 V
33 -272 V
33 344 V
32 -481 V
33 220 V
33 486 V
32 -778 V
33 -67 V
33 233 V
32 -302 V
33 369 V
33 418 V
32 -179 V
33 -421 V
33 155 V
32 -73 V
33 347 V
33 52 V
32 -542 V
33 132 V
33 344 V
32 -63 V
33 -380 V
33 257 V
32 127 V
33 -23 V
33 -144 V
32 17 V
33 -47 V
33 -105 V
32 145 V
33 -369 V
32 318 V
33 -190 V
33 426 V
32 718 V
33 -959 V
33 -72 V
32 69 V
33 -217 V
33 -157 V
32 198 V
33 -98 V
stroke 4252 1093 M
33 10 V
32 487 V
33 174 V
33 -348 V
32 -3 V
33 -183 V
33 402 V
32 -196 V
33 -115 V
33 323 V
32 -210 V
33 427 V
33 -516 V
32 -67 V
33 552 V
33 -394 V
32 -167 V
33 479 V
33 -367 V
32 -210 V
33 -153 V
33 573 V
32 59 V
33 -64 V
33 -520 V
32 -33 V
33 181 V
33 608 V
32 143 V
33 -851 V
33 444 V
32 -154 V
33 -1 V
33 50 V
32 -427 V
33 121 V
33 197 V
32 -73 V
33 452 V
33 -167 V
32 159 V
33 -30 V
33 64 V
32 -144 V
33 -381 V
33 100 V
32 -250 V
33 260 V
32 285 V
33 -28 V
33 57 V
32 -485 V
33 584 V
33 -390 V
32 -151 V
33 185 V
33 185 V
32 -141 V
33 -168 V
33 177 V
32 -56 V
33 751 V
33 -742 V
32 4 V
33 -53 V
33 -117 V
32 -45 V
33 -142 V
33 305 V
32 -334 V
33 521 V
33 -230 V
32 -538 V
33 0 V
33 0 V
32 222 V
33 -179 V
% End plot #4
% Begin plot #5
stroke
LTb
LT4
1.00 0.65 0.00 C LCb setrgbcolor
5984 3849 M
[ [(Times-Roman) 240.0 0.0 true true 0 (QASIO)]
] -80.0 MRshow
3.000 UL
LTb
LT4
1.00 0.65 0.00 C 6128 3849 M
495 0 V
921 1855 M
32 357 V
33 333 V
33 196 V
32 -229 V
33 -1471 V
33 -259 V
32 34 V
33 1067 V
33 809 V
32 248 V
33 -44 V
33 -100 V
32 -993 V
33 -57 V
33 -773 V
32 1640 V
33 -475 V
1509 790 L
32 568 V
33 -556 V
33 853 V
32 -674 V
33 -213 V
33 243 V
32 1357 V
33 373 V
33 202 V
32 -914 V
33 -72 V
32 -996 V
33 1456 V
33 -910 V
32 203 V
33 658 V
33 522 V
32 6 V
33 -258 V
33 151 V
32 133 V
33 -124 V
33 -28 V
32 -296 V
33 -9 V
33 315 V
32 -1477 V
33 21 V
33 1402 V
32 -1477 V
33 -475 V
33 -2 V
32 -1 V
33 972 V
33 -824 V
32 -116 V
33 11 V
33 2 V
32 -38 V
33 22 V
33 382 V
32 35 V
33 1278 V
2946 823 L
32 -54 V
33 606 V
33 1444 V
32 -36 V
33 -353 V
33 196 V
32 -837 V
33 177 V
33 -118 V
32 -912 V
33 260 V
33 -421 V
32 -7 V
33 7 V
33 -6 V
32 233 V
33 1232 V
33 708 V
32 -574 V
33 -863 V
33 260 V
32 814 V
33 -532 V
33 471 V
32 -237 V
33 -1084 V
33 -37 V
32 153 V
33 -289 V
32 738 V
33 126 V
3991 769 L
32 5 V
33 -6 V
33 0 V
32 6 V
33 9 V
33 149 V
32 1450 V
33 -1147 V
33 1703 V
4317 854 L
33 -83 V
33 -2 V
32 0 V
33 330 V
33 1670 V
32 -1064 V
33 -559 V
33 1304 V
32 88 V
33 -646 V
33 -672 V
32 363 V
33 794 V
33 -394 V
32 -333 V
33 -251 V
33 -630 V
32 -1 V
33 374 V
33 -203 V
32 214 V
33 -196 V
33 1134 V
32 -792 V
33 -12 V
33 -338 V
32 398 V
33 113 V
33 950 V
32 -992 V
33 560 V
33 450 V
5395 840 L
33 13 V
33 17 V
32 -94 V
33 0 V
33 11 V
32 999 V
33 680 V
33 -798 V
32 834 V
33 224 V
33 4 V
32 -834 V
33 -789 V
32 -66 V
33 -125 V
33 386 V
32 1503 V
5983 875 L
33 946 V
6048 770 L
33 -2 V
33 0 V
32 990 V
33 -767 V
33 -146 V
32 -71 V
33 688 V
33 -465 V
32 194 V
33 1741 V
33 -1037 V
32 644 V
6473 782 L
33 -8 V
32 1896 V
6571 800 L
33 -32 V
32 2 V
33 51 V
33 1871 V
32 -221 V
33 -1347 V
% End plot #5
% Begin plot #6
stroke
4.000 UL
LTb
0.00 0.00 0.00 C LCb setrgbcolor
5984 3609 M
[ [(Times-Roman) 240.0 0.0 true true 0 (RCP)]
] -80.0 MRshow
4.000 UL
LTb
0.00 0.00 0.00 C 6128 3609 M
495 0 V
921 2719 M
32 305 V
33 11 V
33 8 V
32 -31 V
33 -798 V
33 877 V
32 -39 V
33 -34 V
33 10 V
32 53 V
33 -40 V
33 -32 V
32 -5 V
33 14 V
33 -39 V
32 2 V
33 -19 V
33 31 V
32 -53 V
33 71 V
33 5 V
32 0 V
33 9 V
33 0 V
32 -16 V
33 42 V
33 -38 V
32 53 V
33 0 V
32 -13 V
33 4 V
33 24 V
32 -163 V
33 12 V
33 23 V
32 9 V
33 -53 V
33 -66 V
32 -452 V
33 631 V
33 26 V
32 -15 V
33 -11 V
33 1 V
32 -44 V
33 65 V
33 -14 V
32 -13 V
33 14 V
33 21 V
32 -79 V
33 3 V
33 67 V
32 -42 V
33 -11 V
33 -6 V
32 7 V
33 22 V
33 -34 V
32 20 V
33 -14 V
33 45 V
32 14 V
33 20 V
33 -47 V
32 6 V
33 -2 V
33 -8 V
32 -23 V
33 50 V
33 6 V
32 0 V
33 -22 V
33 43 V
32 -38 V
33 10 V
33 -6 V
32 -711 V
33 662 V
33 -9 V
32 39 V
33 -16 V
33 -6 V
32 -24 V
33 29 V
33 11 V
32 -16 V
33 -15 V
33 35 V
32 -36 V
33 46 V
32 -67 V
33 -2 V
33 67 V
32 -7 V
33 -20 V
33 27 V
32 -12 V
33 -20 V
33 13 V
32 19 V
33 6 V
stroke 4252 3026 M
33 55 V
32 -26 V
33 -17 V
33 -16 V
32 -38 V
33 33 V
33 32 V
32 -48 V
33 18 V
33 -24 V
32 13 V
33 22 V
33 -47 V
32 56 V
33 33 V
33 -25 V
32 -15 V
33 30 V
33 -51 V
32 21 V
33 -414 V
33 4 V
32 342 V
33 78 V
33 -66 V
32 52 V
33 -57 V
33 61 V
32 -24 V
33 18 V
33 9 V
32 40 V
33 -10 V
33 53 V
32 -94 V
33 49 V
33 -130 V
32 61 V
33 -19 V
33 26 V
32 -2 V
33 8 V
33 11 V
32 -5 V
33 -12 V
33 32 V
32 3 V
33 -11 V
32 12 V
33 -3 V
33 -10 V
32 48 V
33 -18 V
33 13 V
32 26 V
33 -73 V
33 38 V
32 -34 V
33 19 V
33 14 V
32 -9 V
33 -12 V
33 8 V
32 -25 V
33 27 V
33 -32 V
32 1 V
33 9 V
33 25 V
32 18 V
33 -38 V
33 6 V
32 2 V
33 -843 V
33 786 V
32 -7 V
33 3 V
% End plot #6
stroke
2.000 UL
LTb
LCb setrgbcolor
1.000 UL
LTB
LCb setrgbcolor
888 3263 N
888 768 L
5879 0 V
0 2495 V
-5879 0 V
Z stroke
1.000 UP
1.000 UL
LTb
LCb setrgbcolor
stroke
grestore
end
showpage
%%Trailer
%%DocumentFonts: Times-Roman
